\relax 
\providecommand\hyper@newdestlabel[2]{}
\providecommand\HyperFirstAtBeginDocument{\AtBeginDocument}
\HyperFirstAtBeginDocument{\ifx\hyper@anchor\@undefined
\global\let\oldcontentsline\contentsline
\gdef\contentsline#1#2#3#4{\oldcontentsline{#1}{#2}{#3}}
\global\let\oldnewlabel\newlabel
\gdef\newlabel#1#2{\newlabelxx{#1}#2}
\gdef\newlabelxx#1#2#3#4#5#6{\oldnewlabel{#1}{{#2}{#3}}}
\AtEndDocument{\ifx\hyper@anchor\@undefined
\let\contentsline\oldcontentsline
\let\newlabel\oldnewlabel
\fi}
\fi}
\global\let\hyper@last\relax 
\gdef\HyperFirstAtBeginDocument#1{#1}
\providecommand\HyField@AuxAddToFields[1]{}
\providecommand\HyField@AuxAddToCoFields[2]{}
\@writefile{toc}{\contentsline {section}{\numberline {1}\hskip -1em.\nobreakspace  {}Introduction}{1}{section.1}}
\@writefile{lof}{\contentsline {figure}{\numberline {1}{\ignorespaces Decompose Standard Convolution into spatial configuration. Then we build the relationships among spatial configurations hierarchically.}}{1}{figure.1}}
\newlabel{decompose}{{1}{1}{Decompose Standard Convolution into spatial configuration. Then we build the relationships among spatial configurations hierarchically}{figure.1}{}}
\@writefile{toc}{\contentsline {section}{\numberline {2}\hskip -1em.\nobreakspace  {}Hierarchical Convolution}{1}{section.2}}
\@writefile{lot}{\contentsline {table}{\numberline {1}{\ignorespaces variance of $K$ and $L$. The corresponding width of hierarchical with similar \#params comparing to the width$=64$ of standard convolution}}{1}{table.1}}
\newlabel{K-L-width}{{1}{1}{variance of $K$ and $L$. The corresponding width of hierarchical with similar \#params comparing to the width$=64$ of standard convolution}{table.1}{}}
\@writefile{lot}{\contentsline {table}{\numberline {2}{\ignorespaces  The corresponding \#params of hierarchical of Table \ref  {K-L-width} comparing to the width$=64$ of standard convolution, which is \#params$=36864$}}{1}{table.2}}
\newlabel{K-L-params}{{2}{1}{The corresponding \#params of hierarchical of Table \ref {K-L-width} comparing to the width$=64$ of standard convolution, which is \#params$=36864$}{table.2}{}}
\@writefile{toc}{\contentsline {section}{\numberline {3}\hskip -1em.\nobreakspace  {}Discussion}{1}{section.3}}
\@writefile{toc}{\contentsline {section}{\numberline {4}\hskip -1em.\nobreakspace  {}Experiment}{1}{section.4}}
\@writefile{toc}{\contentsline {subsection}{\numberline {4.1}\hskip -1em.\nobreakspace  {}Effect of number of layer L}{1}{subsection.4.1}}
\@writefile{lof}{\contentsline {figure}{\numberline {2}{\ignorespaces hierarchical convolution. (1)We also decompose the standard convolution into across spatial convolution and across channel convolution (2)Across channel convolution is tried to build relations among different spatial configurations. Different using fully connection to build these relations, we build relations among k spatial configuration every time. (3)After L times hierarchically, we can build the relations among all spatial configures.}}{2}{figure.2}}
\newlabel{hierarchical_conv}{{2}{2}{hierarchical convolution. (1)We also decompose the standard convolution into across spatial convolution and across channel convolution (2)Across channel convolution is tried to build relations among different spatial configurations. Different using fully connection to build these relations, we build relations among k spatial configuration every time. (3)After L times hierarchically, we can build the relations among all spatial configures}{figure.2}{}}
\@writefile{toc}{\contentsline {subsection}{\numberline {4.2}\hskip -1em.\nobreakspace  {}Effect of number of nodes per supernode K}{2}{subsection.4.2}}
\@writefile{toc}{\contentsline {subsection}{\numberline {4.3}\hskip -1em.\nobreakspace  {}Comparison among decomposition convolution}{2}{subsection.4.3}}
\@writefile{toc}{\contentsline {paragraph}{Standard Convolution}{2}{section*.1}}
\@writefile{toc}{\contentsline {paragraph}{Depthwise Separable Convolution}{2}{section*.2}}
\@writefile{toc}{\contentsline {paragraph}{Interleave Group Convolution}{2}{section*.3}}
\@writefile{toc}{\contentsline {subsection}{\numberline {4.4}\hskip -1em.\nobreakspace  {}Imagenet}{2}{subsection.4.4}}
\@writefile{lot}{\contentsline {table}{\numberline {3}{\ignorespaces  The corresponding \#params of hierarchical of Table \ref  {K-L-width} comparing to the width$=64$ of standard convolution, which is \#params$=36864$}}{2}{table.3}}
\newlabel{comparison-decomp}{{3}{2}{The corresponding \#params of hierarchical of Table \ref {K-L-width} comparing to the width$=64$ of standard convolution, which is \#params$=36864$}{table.3}{}}
\@writefile{lot}{\contentsline {table}{\numberline {4}{\ignorespaces  The corresponding \#params of hierarchical of Table \ref  {K-L-width} comparing to the width$=64$ of standard convolution, which is \#params$=36864$}}{2}{table.4}}
\newlabel{hierarchical-decomp}{{4}{2}{The corresponding \#params of hierarchical of Table \ref {K-L-width} comparing to the width$=64$ of standard convolution, which is \#params$=36864$}{table.4}{}}
