\relax 
\providecommand\hyper@newdestlabel[2]{}
\providecommand\HyperFirstAtBeginDocument{\AtBeginDocument}
\HyperFirstAtBeginDocument{\ifx\hyper@anchor\@undefined
\global\let\oldcontentsline\contentsline
\gdef\contentsline#1#2#3#4{\oldcontentsline{#1}{#2}{#3}}
\global\let\oldnewlabel\newlabel
\gdef\newlabel#1#2{\newlabelxx{#1}#2}
\gdef\newlabelxx#1#2#3#4#5#6{\oldnewlabel{#1}{{#2}{#3}}}
\AtEndDocument{\ifx\hyper@anchor\@undefined
\let\contentsline\oldcontentsline
\let\newlabel\oldnewlabel
\fi}
\fi}
\global\let\hyper@last\relax 
\gdef\HyperFirstAtBeginDocument#1{#1}
\providecommand\HyField@AuxAddToFields[1]{}
\providecommand\HyField@AuxAddToCoFields[2]{}
\@writefile{toc}{\contentsline {section}{\numberline {1}\hskip -1em.\nobreakspace  {}Introduction}{1}{section.1}}
\@writefile{brf}{\backcite{}{{1}{1}{section.1}}}
\@writefile{brf}{\backcite{}{{1}{1}{section.1}}}
\@writefile{brf}{\backcite{}{{1}{1}{section.1}}}
\@writefile{brf}{\backcite{}{{1}{1}{section.1}}}
\@writefile{toc}{\contentsline {section}{\numberline {2}\hskip -1em.\nobreakspace  {}Our Approach}{1}{section.2}}
\@writefile{toc}{\contentsline {subsection}{\numberline {2.1}\hskip -1em.\nobreakspace  {}Product of Two Sparse Matrices}{1}{subsection.2.1}}
\newlabel{eqn:twosparsematrixproduct}{{2}{1}{\hskip -1em.~Product of Two Sparse Matrices}{equation.2.2}{}}
\newlabel{eqn:groupconvolution}{{3}{1}{\hskip -1em.~Product of Two Sparse Matrices}{equation.2.3}{}}
\newlabel{eqn:channelwiseconvolution}{{4}{2}{\hskip -1em.~Product of Two Sparse Matrices}{equation.2.4}{}}
\@writefile{toc}{\contentsline {subsection}{\numberline {2.2}\hskip -1em.\nobreakspace  {}Product of More Sparse Matrices}{2}{subsection.2.2}}
\newlabel{eqn:moresparsematrixproduct}{{6}{2}{\hskip -1em.~Product of More Sparse Matrices}{equation.2.6}{}}
\@writefile{brf}{\backcite{}{{2}{2.2}{equation.2.6}}}
\@writefile{toc}{\contentsline {section}{\numberline {3}\hskip -1em.\nobreakspace  {}Experiment}{2}{section.3}}
\@writefile{toc}{\contentsline {subsection}{\numberline {3.1}\hskip -1em.\nobreakspace  {}Empirical Study}{2}{subsection.3.1}}
\@writefile{toc}{\contentsline {subsection}{\numberline {3.2}\hskip -1em.\nobreakspace  {}Empirical Analysis}{2}{subsection.3.2}}
\@writefile{lot}{\contentsline {table}{\numberline {1}{\ignorespaces By decomposing the $1\times 1$ convolution into 2 matrix, our model with hconv has better performance than IGC and hconv, which shows that more decomposing is better.\relax }}{3}{table.caption.1}}
\providecommand*\caption@xref[2]{\@setref\relax\@undefined{#1}}
\newlabel{table-two-partition}{{1}{3}{By decomposing the $1\times 1$ convolution into 2 matrix, our model with hconv has better performance than IGC and hconv, which shows that more decomposing is better.\relax }{table.caption.1}{}}
\@writefile{lof}{\contentsline {figure}{\numberline {1}{\ignorespaces When the number of layer $L$ is large, Select a small $K$ has the better performance. When the number of layer $L$ is small, select a large $K$ has the better performance.\relax }}{3}{figure.caption.2}}
\newlabel{fig-select-K}{{1}{3}{When the number of layer $L$ is large, Select a small $K$ has the better performance. When the number of layer $L$ is small, select a large $K$ has the better performance.\relax }{figure.caption.2}{}}
\@writefile{lof}{\contentsline {figure}{\numberline {2}{\ignorespaces Relation among K, L and N. When $L\approx \qopname  \relax o{log}_K(N)$, the network can achieve best performance. \relax }}{3}{figure.caption.3}}
\newlabel{fig-logkn}{{2}{3}{Relation among K, L and N. When $L\approx \log _K(N)$, the network can achieve best performance. \relax }{figure.caption.3}{}}
\@writefile{lot}{\contentsline {table}{\numberline {2}{\ignorespaces Corresponding width and \#params\relax }}{3}{table.caption.4}}
\newlabel{table-logkn}{{2}{3}{Corresponding width and \#params\relax }{table.caption.4}{}}
\@writefile{toc}{\contentsline {paragraph}{Relation among K , L and N.}{3}{section*.5}}
\@writefile{brf}{\backcite{}{{3}{3.2}{section*.5}}}
\@writefile{toc}{\contentsline {paragraph}{Effect of The Number of Layer.}{3}{section*.8}}
\@writefile{lof}{\contentsline {figure}{\numberline {3}{\ignorespaces When the number of layer $L$ increasing, the network is getting wider. However, more number of layer will cause a drop of performance. We suggest to set $L$ in the range $[2,4]$.\relax }}{4}{figure.caption.6}}
\newlabel{fig-select-layer}{{3}{4}{When the number of layer $L$ increasing, the network is getting wider. However, more number of layer will cause a drop of performance. We suggest to set $L$ in the range $[2,4]$.\relax }{figure.caption.6}{}}
\@writefile{lot}{\contentsline {table}{\numberline {3}{\ignorespaces Setting L to increase and explore how does it take effect on the performance of the network. \relax }}{4}{table.caption.7}}
\newlabel{table-select-layer}{{3}{4}{Setting L to increase and explore how does it take effect on the performance of the network. \relax }{table.caption.7}{}}
\@writefile{toc}{\contentsline {paragraph}{From Deeper to Wider Network.}{4}{figure.caption.10}}
\@writefile{toc}{\contentsline {subsection}{\numberline {3.3}\hskip -1em.\nobreakspace  {}Compare With Depthwise Separable Convolution}{4}{subsection.3.3}}
\@writefile{toc}{\contentsline {subsection}{\numberline {3.4}\hskip -1em.\nobreakspace  {}Compare With IGC}{4}{subsection.3.4}}
\newlabel{fig-d2w-param-plain}{{4a}{5}{plain-\#params\relax }{figure.caption.10}{}}
\newlabel{sub@fig-d2w-param-plain}{{a}{5}{plain-\#params\relax }{figure.caption.10}{}}
\newlabel{fig-d2w-flops-plain}{{4b}{5}{plain-FLOPs\relax }{figure.caption.10}{}}
\newlabel{sub@fig-d2w-flops-plain}{{b}{5}{plain-FLOPs\relax }{figure.caption.10}{}}
\newlabel{fig-d2w-param}{{4c}{5}{Ident-\#params\relax }{figure.caption.10}{}}
\newlabel{sub@fig-d2w-param}{{c}{5}{Ident-\#params\relax }{figure.caption.10}{}}
\newlabel{fig-d2w-flops}{{4d}{5}{Ident-FLOPs\relax }{figure.caption.10}{}}
\newlabel{sub@fig-d2w-flops}{{d}{5}{Ident-FLOPs\relax }{figure.caption.10}{}}
\@writefile{lof}{\contentsline {figure}{\numberline {4}{\ignorespaces Pictures of animals\relax }}{5}{figure.caption.10}}
\newlabel{fig:animals}{{4}{5}{Pictures of animals\relax }{figure.caption.10}{}}
\@writefile{lot}{\contentsline {table}{\numberline {4}{\ignorespaces Comparison of \#params and FLOPs\relax }}{5}{table.caption.11}}
\newlabel{dw-hconv-params-flops}{{4}{5}{Comparison of \#params and FLOPs\relax }{table.caption.11}{}}
\@writefile{lot}{\contentsline {table}{\numberline {5}{\ignorespaces Network structure.\relax }}{5}{table.caption.12}}
\newlabel{dw-hconv-structure}{{5}{5}{Network structure.\relax }{table.caption.12}{}}
\@writefile{lot}{\contentsline {table}{\numberline {6}{\ignorespaces Comparison of depthwise and hconv. (Ident) \relax }}{5}{table.caption.13}}
\newlabel{table-compare-dw}{{6}{5}{Comparison of depthwise and hconv. (Ident) \relax }{table.caption.13}{}}
\@writefile{lot}{\contentsline {table}{\numberline {7}{\ignorespaces Compare hconv with IGC on CIFAR-10 and CIFAR-100, on plain network structure. (plain)\relax }}{5}{table.caption.14}}
\newlabel{table-compare-igc-plain}{{7}{5}{Compare hconv with IGC on CIFAR-10 and CIFAR-100, on plain network structure. (plain)\relax }{table.caption.14}{}}
\@writefile{lot}{\contentsline {table}{\numberline {8}{\ignorespaces Compare hconv with IGC on tiny-imagenet and CIFAR-100, with skip connection. \relax }}{6}{table.caption.15}}
\newlabel{table-compare-igc-res}{{8}{6}{Compare hconv with IGC on tiny-imagenet and CIFAR-100, with skip connection. \relax }{table.caption.15}{}}
