\relax 
\providecommand\hyper@newdestlabel[2]{}
\providecommand\HyperFirstAtBeginDocument{\AtBeginDocument}
\HyperFirstAtBeginDocument{\ifx\hyper@anchor\@undefined
\global\let\oldcontentsline\contentsline
\gdef\contentsline#1#2#3#4{\oldcontentsline{#1}{#2}{#3}}
\global\let\oldnewlabel\newlabel
\gdef\newlabel#1#2{\newlabelxx{#1}#2}
\gdef\newlabelxx#1#2#3#4#5#6{\oldnewlabel{#1}{{#2}{#3}}}
\AtEndDocument{\ifx\hyper@anchor\@undefined
\let\contentsline\oldcontentsline
\let\newlabel\oldnewlabel
\fi}
\fi}
\global\let\hyper@last\relax 
\gdef\HyperFirstAtBeginDocument#1{#1}
\providecommand\HyField@AuxAddToFields[1]{}
\providecommand\HyField@AuxAddToCoFields[2]{}
\citation{HeZRS16}
\citation{ZhangQXW17}
\citation{IoannouRCC16}
\citation{Chollet16a}
\citation{zhou2017incremental}
\citation{HanMD15}
\citation{courbariaux2016binarized}
\citation{rastegari2016xnor}
\citation{li2016ternary}
\citation{zhou2016dorefa}
\citation{zhu2016trained}
\citation{liu2015sparse}
\citation{park2016faster}
\citation{WenWWCL16}
\citation{mao2017exploring}
\citation{XieGDTH16}
\citation{ZhaoWLTZ16}
\@writefile{toc}{\contentsline {section}{\numberline {1}\hskip -1em.\nobreakspace  {}Introduction}{1}{section.1}}
\@writefile{brf}{\backcite{HeZRS16}{{1}{1}{section.1}}}
\@writefile{brf}{\backcite{ZhangQXW17}{{1}{1}{section.1}}}
\@writefile{brf}{\backcite{IoannouRCC16}{{1}{1}{section.1}}}
\@writefile{brf}{\backcite{Chollet16a}{{1}{1}{section.1}}}
\@writefile{toc}{\contentsline {section}{\numberline {2}\hskip -1em.\nobreakspace  {}Related Work}{1}{section.2}}
\@writefile{brf}{\backcite{zhou2017incremental,HanMD15}{{1}{2}{section.2}}}
\@writefile{brf}{\backcite{courbariaux2016binarized,rastegari2016xnor}{{1}{2}{section.2}}}
\@writefile{brf}{\backcite{li2016ternary,zhou2016dorefa,zhu2016trained}{{1}{2}{section.2}}}
\citation{he2017channel}
\citation{wen2017coordinating}
\citation{LiKDSG16}
\citation{IoannouRSCC15}
\citation{JaderbergVZ14}
\citation{MamaletG12}
\citation{DentonZBLF14}
\citation{JaderbergVZ14}
\citation{DentonZBLF14}
\citation{KimPYCYS15}
\citation{JaderbergVZ14}
\citation{HeZRS16}
\citation{ZhangQXW17}
\citation{ZhangQXW17}
\citation{Chollet16a}
\citation{IoannouRCC16}
\@writefile{brf}{\backcite{liu2015sparse,park2016faster}{{2}{2}{section.2}}}
\@writefile{brf}{\backcite{WenWWCL16,mao2017exploring}{{2}{2}{section.2}}}
\@writefile{brf}{\backcite{XieGDTH16, ZhaoWLTZ16}{{2}{2}{section.2}}}
\@writefile{brf}{\backcite{he2017channel}{{2}{2}{section.2}}}
\@writefile{brf}{\backcite{wen2017coordinating,LiKDSG16}{{2}{2}{section.2}}}
\@writefile{brf}{\backcite{IoannouRSCC15, JaderbergVZ14, MamaletG12}{{2}{2}{section.2}}}
\@writefile{brf}{\backcite{DentonZBLF14, JaderbergVZ14}{{2}{2}{section.2}}}
\@writefile{brf}{\backcite{DentonZBLF14, KimPYCYS15, JaderbergVZ14}{{2}{2}{section.2}}}
\@writefile{brf}{\backcite{HeZRS16}{{2}{2}{section.2}}}
\@writefile{brf}{\backcite{ZhangQXW17}{{2}{2}{section.2}}}
\@writefile{brf}{\backcite{ZhangQXW17}{{2}{2}{section.2}}}
\@writefile{brf}{\backcite{Chollet16a}{{2}{2}{section.2}}}
\@writefile{brf}{\backcite{IoannouRCC16}{{2}{2}{section.2}}}
\@writefile{toc}{\contentsline {section}{\numberline {3}\hskip -1em.\nobreakspace  {}Our Approach}{2}{section.3}}
\@writefile{toc}{\contentsline {subsection}{\numberline {3.1}\hskip -1em.\nobreakspace  {}Product of Two Sparse Matrices}{2}{subsection.3.1}}
\newlabel{eqn:twosparsematrixproduct}{{2}{2}{\hskip -1em.~Product of Two Sparse Matrices}{equation.3.2}{}}
\newlabel{eqn:groupconvolution}{{3}{2}{\hskip -1em.~Product of Two Sparse Matrices}{equation.3.3}{}}
\newlabel{eqn:channelwiseconvolution}{{4}{2}{\hskip -1em.~Product of Two Sparse Matrices}{equation.3.4}{}}
\@writefile{toc}{\contentsline {subsection}{\numberline {3.2}\hskip -1em.\nobreakspace  {}Product of More Sparse Matrices}{3}{subsection.3.2}}
\newlabel{eqn:moresparsematrixproduct}{{6}{3}{\hskip -1em.~Product of More Sparse Matrices}{equation.3.6}{}}
\@writefile{brf}{\backcite{}{{3}{3.2}{equation.3.6}}}
\citation{ZhangQXW17}
\citation{krizhevsky2009learning}
\citation{Le2015TinyIV}
\citation{ILSVRC15}
\citation{ZhangQXW17}
\@writefile{lot}{\contentsline {table}{\numberline {1}{\ignorespaces By decomposing the $1\times 1$ convolution into 2 matrix, our model with hconv has better performance than IGC and hconv, which shows that more decomposing is better.\relax }}{4}{table.caption.1}}
\providecommand*\caption@xref[2]{\@setref\relax\@undefined{#1}}
\newlabel{table-two-partition}{{1}{4}{By decomposing the $1\times 1$ convolution into 2 matrix, our model with hconv has better performance than IGC and hconv, which shows that more decomposing is better.\relax }{table.caption.1}{}}
\@writefile{toc}{\contentsline {section}{\numberline {4}\hskip -1em.\nobreakspace  {}Experiment}{4}{section.4}}
\@writefile{toc}{\contentsline {subsection}{\numberline {4.1}\hskip -1em.\nobreakspace  {}Datasets}{4}{subsection.4.1}}
\@writefile{brf}{\backcite{krizhevsky2009learning}{{4}{4.1}{subsection.4.1}}}
\@writefile{brf}{\backcite{ZhangQXW17}{{4}{2}{Hfootnote.2}}}
\@writefile{lof}{\contentsline {figure}{\numberline {1}{\ignorespaces When the number of layer $L$ is large, Select a small $K$ has the better performance. When the number of layer $L$ is small, select a large $K$ has the better performance.\relax }}{4}{figure.caption.2}}
\newlabel{fig-select-K}{{1}{4}{When the number of layer $L$ is large, Select a small $K$ has the better performance. When the number of layer $L$ is small, select a large $K$ has the better performance.\relax }{figure.caption.2}{}}
\@writefile{brf}{\backcite{Le2015TinyIV}{{4}{4.1}{subsection.4.1}}}
\@writefile{brf}{\backcite{ILSVRC15}{{4}{4.1}{subsection.4.1}}}
\@writefile{toc}{\contentsline {subsection}{\numberline {4.2}\hskip -1em.\nobreakspace  {}Empirical Analysis}{4}{subsection.4.2}}
\@writefile{brf}{\backcite{ZhangQXW17}{{4}{4.2}{figure.caption.3}}}
\@writefile{lof}{\contentsline {figure}{\numberline {2}{\ignorespaces Relation among K, L and N. When $L\approx \qopname  \relax o{log}_K(N)$, the network can achieve best performance. \relax }}{5}{figure.caption.3}}
\newlabel{fig-logkn}{{2}{5}{Relation among K, L and N. When $L\approx \log _K(N)$, the network can achieve best performance. \relax }{figure.caption.3}{}}
\@writefile{lot}{\contentsline {table}{\numberline {2}{\ignorespaces Corresponding width and \#params\relax }}{5}{table.caption.4}}
\newlabel{table-logkn}{{2}{5}{Corresponding width and \#params\relax }{table.caption.4}{}}
\@writefile{lof}{\contentsline {figure}{\numberline {3}{\ignorespaces When the number of layer $L$ increasing, the network is getting wider. However, more number of layer will cause a drop of performance. We suggest to set $L$ in the range $[2,4]$.\relax }}{5}{figure.caption.5}}
\newlabel{fig-select-layer}{{3}{5}{When the number of layer $L$ increasing, the network is getting wider. However, more number of layer will cause a drop of performance. We suggest to set $L$ in the range $[2,4]$.\relax }{figure.caption.5}{}}
\@writefile{lot}{\contentsline {table}{\numberline {3}{\ignorespaces Setting L to increase and explore how does it take effect on the performance of the network. \relax }}{5}{table.caption.6}}
\newlabel{table-select-layer}{{3}{5}{Setting L to increase and explore how does it take effect on the performance of the network. \relax }{table.caption.6}{}}
\citation{he2016identity}
\citation{ZhangQXW17}
\citation{ZhangQXW17}
\@writefile{lot}{\contentsline {table}{\numberline {4}{\ignorespaces Comparison of depthwise and hconv. (Ident) \relax }}{6}{table.caption.7}}
\newlabel{table-compare-dw}{{4}{6}{Comparison of depthwise and hconv. (Ident) \relax }{table.caption.7}{}}
\@writefile{lot}{\contentsline {table}{\numberline {5}{\ignorespaces Compare hconv with IGC on CIFAR-10 and CIFAR-100, on plain network structure. (plain)\relax }}{6}{table.caption.8}}
\newlabel{table-compare-igc-plain}{{5}{6}{Compare hconv with IGC on CIFAR-10 and CIFAR-100, on plain network structure. (plain)\relax }{table.caption.8}{}}
\@writefile{toc}{\contentsline {subsection}{\numberline {4.3}\hskip -1em.\nobreakspace  {}Compare With Depthwise Separable Convolution}{6}{subsection.4.3}}
\@writefile{brf}{\backcite{he2016identity}{{6}{4.3}{table.caption.11}}}
\newlabel{fig-d2w-param-plain}{{4a}{6}{plain-\#params\relax }{figure.caption.9}{}}
\newlabel{sub@fig-d2w-param-plain}{{a}{6}{plain-\#params\relax }{figure.caption.9}{}}
\newlabel{fig-d2w-flops-plain}{{4b}{6}{plain-FLOPs\relax }{figure.caption.9}{}}
\newlabel{sub@fig-d2w-flops-plain}{{b}{6}{plain-FLOPs\relax }{figure.caption.9}{}}
\newlabel{fig-d2w-param}{{4c}{6}{Ident-\#params\relax }{figure.caption.9}{}}
\newlabel{sub@fig-d2w-param}{{c}{6}{Ident-\#params\relax }{figure.caption.9}{}}
\newlabel{fig-d2w-flops}{{4d}{6}{Ident-FLOPs\relax }{figure.caption.9}{}}
\newlabel{sub@fig-d2w-flops}{{d}{6}{Ident-FLOPs\relax }{figure.caption.9}{}}
\@writefile{lof}{\contentsline {figure}{\numberline {4}{\ignorespaces Pictures of animals\relax }}{6}{figure.caption.9}}
\newlabel{fig:animals}{{4}{6}{Pictures of animals\relax }{figure.caption.9}{}}
\@writefile{toc}{\contentsline {subsection}{\numberline {4.4}\hskip -1em.\nobreakspace  {}Compare With IGC}{6}{subsection.4.4}}
\@writefile{brf}{\backcite{ZhangQXW17}{{6}{4.4}{subsection.4.4}}}
\@writefile{brf}{\backcite{ZhangQXW17}{{6}{4.4}{subsection.4.4}}}
\@writefile{lot}{\contentsline {table}{\numberline {6}{\ignorespaces Comparison of \#params and FLOPs\relax }}{7}{table.caption.10}}
\newlabel{dw-hconv-params-flops}{{6}{7}{Comparison of \#params and FLOPs\relax }{table.caption.10}{}}
\@writefile{lot}{\contentsline {table}{\numberline {7}{\ignorespaces Network structure.\relax }}{7}{table.caption.11}}
\newlabel{dw-hconv-structure}{{7}{7}{Network structure.\relax }{table.caption.11}{}}
\@writefile{toc}{\contentsline {subsection}{\numberline {4.5}\hskip -1em.\nobreakspace  {}From Deeper to Wider Network.}{7}{subsection.4.5}}
\@writefile{toc}{\contentsline {paragraph}{Wider is better.}{7}{section*.13}}
\@writefile{lof}{\contentsline {figure}{\numberline {5}{\ignorespaces When \#params increase, width of hconv increase faster than IGC and depthwise convolution.\relax }}{7}{figure.caption.16}}
\newlabel{fig-params-width}{{5}{7}{When \#params increase, width of hconv increase faster than IGC and depthwise convolution.\relax }{figure.caption.16}{}}
\@writefile{toc}{\contentsline {paragraph}{Comparison on Wider Network.}{7}{figure.caption.17}}
\bibstyle{ieee}
\bibdata{ConvApproximation}
\bibcite{Chollet16a}{1}
\bibcite{courbariaux2016binarized}{2}
\bibcite{DentonZBLF14}{3}
\bibcite{HanMD15}{4}
\bibcite{HeZRS16}{5}
\bibcite{he2016identity}{6}
\bibcite{he2017channel}{7}
\bibcite{IoannouRCC16}{8}
\@writefile{lot}{\contentsline {table}{\numberline {8}{\ignorespaces Compare hconv with IGC on tiny-imagenet and CIFAR-100, with skip connection. \relax }}{8}{table.caption.12}}
\newlabel{table-compare-igc-res}{{8}{8}{Compare hconv with IGC on tiny-imagenet and CIFAR-100, with skip connection. \relax }{table.caption.12}{}}
\@writefile{lot}{\contentsline {table}{\numberline {9}{\ignorespaces Compare IGC, depthwise convolution and hconv on wider network.\relax }}{8}{table.caption.15}}
\newlabel{table-wider-comparison}{{9}{8}{Compare IGC, depthwise convolution and hconv on wider network.\relax }{table.caption.15}{}}
\newlabel{fig-wider-params}{{6a}{8}{accuracy against \#params\relax }{figure.caption.17}{}}
\newlabel{sub@fig-wider-params}{{a}{8}{accuracy against \#params\relax }{figure.caption.17}{}}
\newlabel{fig-wider-flops}{{6b}{8}{accuracy against FLOPs\relax }{figure.caption.17}{}}
\newlabel{sub@fig-wider-flops}{{b}{8}{accuracy against FLOPs\relax }{figure.caption.17}{}}
\@writefile{lof}{\contentsline {figure}{\numberline {6}{\ignorespaces comparison on wider network on CIFAR-100\relax }}{8}{figure.caption.17}}
\newlabel{fig-wider-comparison}{{6}{8}{comparison on wider network on CIFAR-100\relax }{figure.caption.17}{}}
\@writefile{lot}{\contentsline {table}{\numberline {10}{\ignorespaces Compare with other methods\relax }}{8}{table.caption.18}}
\newlabel{table-all-comparison}{{10}{8}{Compare with other methods\relax }{table.caption.18}{}}
\bibcite{IoannouRSCC15}{9}
\bibcite{JaderbergVZ14}{10}
\bibcite{KimPYCYS15}{11}
\bibcite{krizhevsky2009learning}{12}
\bibcite{Le2015TinyIV}{13}
\bibcite{li2016ternary}{14}
\bibcite{LiKDSG16}{15}
\bibcite{liu2015sparse}{16}
\bibcite{MamaletG12}{17}
\bibcite{mao2017exploring}{18}
\bibcite{park2016faster}{19}
\bibcite{rastegari2016xnor}{20}
\bibcite{ILSVRC15}{21}
\bibcite{WenWWCL16}{22}
\bibcite{wen2017coordinating}{23}
\bibcite{XieGDTH16}{24}
\bibcite{ZhangQXW17}{25}
\bibcite{ZhaoWLTZ16}{26}
\bibcite{zhou2017incremental}{27}
\bibcite{zhou2016dorefa}{28}
\bibcite{zhu2016trained}{29}
