\relax 
\providecommand\hyper@newdestlabel[2]{}
\providecommand\HyperFirstAtBeginDocument{\AtBeginDocument}
\HyperFirstAtBeginDocument{\ifx\hyper@anchor\@undefined
\global\let\oldcontentsline\contentsline
\gdef\contentsline#1#2#3#4{\oldcontentsline{#1}{#2}{#3}}
\global\let\oldnewlabel\newlabel
\gdef\newlabel#1#2{\newlabelxx{#1}#2}
\gdef\newlabelxx#1#2#3#4#5#6{\oldnewlabel{#1}{{#2}{#3}}}
\AtEndDocument{\ifx\hyper@anchor\@undefined
\let\contentsline\oldcontentsline
\let\newlabel\oldnewlabel
\fi}
\fi}
\global\let\hyper@last\relax 
\gdef\HyperFirstAtBeginDocument#1{#1}
\providecommand\HyField@AuxAddToFields[1]{}
\providecommand\HyField@AuxAddToCoFields[2]{}
\citation{HeZRS16}
\citation{ZhangQXW17}
\citation{IoannouRCC16}
\citation{Chollet16a}
\citation{zhou2017incremental}
\citation{HanMD15}
\citation{courbariaux2016binarized}
\citation{rastegari2016xnor}
\citation{li2016ternary}
\citation{zhou2016dorefa}
\citation{zhu2016trained}
\citation{liu2015sparse}
\citation{park2016faster}
\citation{WenWWCL16}
\citation{mao2017exploring}
\citation{XieGDTH16}
\citation{ZhaoWLTZ16}
\@writefile{toc}{\contentsline {section}{\numberline {1}\hskip -1em.\nobreakspace  {}Introduction}{1}{section.1}}
\@writefile{toc}{\contentsline {section}{\numberline {2}\hskip -1em.\nobreakspace  {}Related Work}{1}{section.2}}
\citation{he2017channel}
\citation{wen2017coordinating}
\citation{LiKDSG16}
\citation{IoannouRSCC15}
\citation{JaderbergVZ14}
\citation{MamaletG12}
\citation{DentonZBLF14}
\citation{JaderbergVZ14}
\citation{DentonZBLF14}
\citation{KimPYCYS15}
\citation{JaderbergVZ14}
\citation{HeZRS16}
\citation{ZhangQXW17}
\citation{ZhangQXW17}
\citation{Chollet16a}
\citation{IoannouRCC16}
\@writefile{toc}{\contentsline {section}{\numberline {3}\hskip -1em.\nobreakspace  {}Our Approach}{2}{section.3}}
\@writefile{toc}{\contentsline {subsection}{\numberline {3.1}\hskip -1em.\nobreakspace  {}A Review of IGC, Xception and Deep Roots}{2}{subsection.3.1}}
\newlabel{eqn:twosparsematrixproduct}{{2}{2}{\hskip -1em.~A Review of IGC, Xception and Deep Roots}{equation.3.2}{}}
\newlabel{eqn:groupconvolution}{{3}{2}{\hskip -1em.~A Review of IGC, Xception and Deep Roots}{equation.3.3}{}}
\newlabel{eqn:channelwiseconvolution}{{4}{2}{\hskip -1em.~A Review of IGC, Xception and Deep Roots}{equation.3.4}{}}
\@writefile{toc}{\contentsline {subsection}{\numberline {3.2}\hskip -1em.\nobreakspace  {}Interleaved Structured Sparse Convolutions}{3}{subsection.3.2}}
\newlabel{sec:ISSC}{{3.2}{3}{\hskip -1em.~Interleaved Structured Sparse Convolutions}{subsection.3.2}{}}
\newlabel{eqn:moresparsematrixproduct}{{6}{3}{\hskip -1em.~Interleaved Structured Sparse Convolutions}{equation.3.6}{}}
\citation{ZhangQXW17}
\citation{krizhevsky2009learning}
\citation{Le2015TinyIV}
\citation{ILSVRC15}
\newlabel{eqn:balancecondition}{{17}{4}{\hskip -1em.~Interleaved Structured Sparse Convolutions}{equation.3.17}{}}
\newlabel{eqn:optimalLforminimalC}{{20}{4}{\hskip -1em.~Interleaved Structured Sparse Convolutions}{equation.3.20}{}}
\@writefile{toc}{\contentsline {section}{\numberline {4}\hskip -1em.\nobreakspace  {}Experiment}{4}{section.4}}
\@writefile{toc}{\contentsline {subsection}{\numberline {4.1}\hskip -1em.\nobreakspace  {}Datasets}{4}{subsection.4.1}}
\@writefile{lot}{\contentsline {table}{\numberline {1}{\ignorespaces Summary of the number of parameters for the networks used in Figure\nobreakspace  {}\ref  {fig:effectofk}.\relax }}{4}{table.caption.2}}
\newlabel{tab:networkdetailsforeffectofk}{{1}{4}{Summary of the number of parameters for the networks used in Figure~\ref {fig:effectofk}.\relax }{table.caption.2}{}}
\@writefile{toc}{\contentsline {subsection}{\numberline {4.2}\hskip -1em.\nobreakspace  {}Empirical Analysis}{4}{subsection.4.2}}
\@writefile{lof}{\contentsline {figure}{\numberline {1}{\ignorespaces Illustrating how the number of channels ($K$) in each branch in group convolutions affects the performance in our approach. The results are reported on CIFAR-$100$.\relax }}{5}{figure.caption.1}}
\providecommand*\caption@xref[2]{\@setref\relax\@undefined{#1}}
\newlabel{fig:effectofk}{{1}{5}{Illustrating how the number of channels ($K$) in each branch in group convolutions affects the performance in our approach. The results are reported on CIFAR-$100$.\relax }{figure.caption.1}{}}
\@writefile{lof}{\contentsline {figure}{\numberline {2}{\ignorespaces Illustrating how the performance changes when different numbers of layers are to form our ISSC block. The numbers of channels in each branch of group convolution are chosen to satisfy the balance condition. The detailed choices are presented in Table\nobreakspace  {}\ref  {tab:DKLeffectofL}.\relax }}{5}{figure.caption.3}}
\newlabel{fig:effectofL}{{2}{5}{Illustrating how the performance changes when different numbers of layers are to form our ISSC block. The numbers of channels in each branch of group convolution are chosen to satisfy the balance condition. The detailed choices are presented in Table~\ref {tab:DKLeffectofL}.\relax }{figure.caption.3}{}}
\@writefile{lot}{\contentsline {table}{\numberline {2}{\ignorespaces Illustrating the choices of $K$, $D$ and \#params for different $L$ for Figure\nobreakspace  {}\ref  {fig:effectofL}. \relax }}{5}{table.caption.4}}
\newlabel{tab:DKLeffectofL}{{2}{5}{Illustrating the choices of $K$, $D$ and \#params for different $L$ for Figure~\ref {fig:effectofL}. \relax }{table.caption.4}{}}
\newlabel{fig-d2w-param-plain}{{3a}{6}{plain-\#params\relax }{figure.caption.5}{}}
\newlabel{sub@fig-d2w-param-plain}{{a}{6}{plain-\#params\relax }{figure.caption.5}{}}
\newlabel{fig-d2w-flops-plain}{{3b}{6}{plain-FLOPs\relax }{figure.caption.5}{}}
\newlabel{sub@fig-d2w-flops-plain}{{b}{6}{plain-FLOPs\relax }{figure.caption.5}{}}
\newlabel{fig-d2w-param}{{3c}{6}{Ident-\#params\relax }{figure.caption.5}{}}
\newlabel{sub@fig-d2w-param}{{c}{6}{Ident-\#params\relax }{figure.caption.5}{}}
\newlabel{fig-d2w-flops}{{3d}{6}{Ident-FLOPs\relax }{figure.caption.5}{}}
\newlabel{sub@fig-d2w-flops}{{d}{6}{Ident-FLOPs\relax }{figure.caption.5}{}}
\@writefile{lof}{\contentsline {figure}{\numberline {3}{\ignorespaces Illustrating how the performances of our networks change for wider/deeper networks. {\color  {red} more}\relax }}{6}{figure.caption.5}}
\newlabel{fig:deeperwider}{{3}{6}{Illustrating how the performances of our networks change for wider/deeper networks. {\color {red} more}\relax }{figure.caption.5}{}}
\@writefile{lot}{\contentsline {table}{\numberline {3}{\ignorespaces Comparison between our ISSC approach, regular convolutions, Xception over networks with various depths and identity mappings as skip connections.\relax }}{6}{table.caption.6}}
\newlabel{tab:comparisontoXceptionvariousdepth}{{3}{6}{Comparison between our ISSC approach, regular convolutions, Xception over networks with various depths and identity mappings as skip connections.\relax }{table.caption.6}{}}
\@writefile{lot}{\contentsline {table}{\numberline {4}{\ignorespaces Comparing Xception and our ISSC block, which is nested constructed by decomposing the $1\times 1$ convolution in Xception to two group convolutions.\relax }}{6}{table.caption.7}}
\newlabel{tab:comparisontoxception8layers}{{4}{6}{Comparing Xception and our ISSC block, which is nested constructed by decomposing the $1\times 1$ convolution in Xception to two group convolutions.\relax }{table.caption.7}{}}
\@writefile{lot}{\contentsline {table}{\numberline {5}{\ignorespaces Comparison to Xception and IGC over $20$-layer networks with various widths. {\color  {red} report the results with the curves?}\relax }}{6}{table.caption.8}}
\newlabel{tab:comparedIGCXceptionvariouswidth}{{5}{6}{Comparison to Xception and IGC over $20$-layer networks with various widths. {\color {red} report the results with the curves?}\relax }{table.caption.8}{}}
\@writefile{toc}{\contentsline {subsection}{\numberline {4.3}\hskip -1em.\nobreakspace  {}Comparison With Xception}{6}{subsection.4.3}}
\citation{ZhangQXW17}
\bibstyle{ieee}
\bibdata{ConvApproximation}
\bibcite{Chollet16a}{1}
\bibcite{courbariaux2016binarized}{2}
\bibcite{DentonZBLF14}{3}
\bibcite{HanMD15}{4}
\bibcite{HeZRS16}{5}
\bibcite{he2017channel}{6}
\bibcite{IoannouRCC16}{7}
\bibcite{IoannouRSCC15}{8}
\bibcite{JaderbergVZ14}{9}
\bibcite{KimPYCYS15}{10}
\bibcite{krizhevsky2009learning}{11}
\bibcite{Le2015TinyIV}{12}
\bibcite{li2016ternary}{13}
\bibcite{LiKDSG16}{14}
\bibcite{liu2015sparse}{15}
\bibcite{MamaletG12}{16}
\bibcite{mao2017exploring}{17}
\bibcite{park2016faster}{18}
\@writefile{toc}{\contentsline {subsection}{\numberline {4.4}\hskip -1em.\nobreakspace  {}Comparison With IGC.}{7}{subsection.4.4}}
\@writefile{toc}{\contentsline {subsection}{\numberline {4.5}\hskip -1em.\nobreakspace  {}Performance Comparison for Small-Model Networks}{7}{subsection.4.5}}
\@writefile{toc}{\contentsline {section}{\numberline {5}\hskip -1em.\nobreakspace  {}Conclusions}{7}{section.5}}
\bibcite{rastegari2016xnor}{19}
\bibcite{ILSVRC15}{20}
\bibcite{WenWWCL16}{21}
\bibcite{wen2017coordinating}{22}
\bibcite{XieGDTH16}{23}
\bibcite{ZhangQXW17}{24}
\bibcite{ZhaoWLTZ16}{25}
\@writefile{lot}{\contentsline {table}{\numberline {6}{\ignorespaces Comparison of \#params and FLOPs\relax }}{8}{table.caption.9}}
\newlabel{dw-hconv-params-flops}{{6}{8}{Comparison of \#params and FLOPs\relax }{table.caption.9}{}}
\@writefile{lot}{\contentsline {table}{\numberline {7}{\ignorespaces Network structure.\relax }}{8}{table.caption.10}}
\newlabel{tab:networkstructures}{{7}{8}{Network structure.\relax }{table.caption.10}{}}
\@writefile{lot}{\contentsline {table}{\numberline {8}{\ignorespaces Comparing IGC, one ISSC block (ISSC-X), which is nested constructed by decomposing the $1\times 1$ convolution in Xception to two group convolutions, and one ISSC block (ISSC-I), which is nested constructed by decomposing the $1\times 1$ group convolution in IGC to two group convolutions.\relax }}{8}{table.caption.11}}
\newlabel{tab:comparisontoIGC8layers}{{8}{8}{Comparing IGC, one ISSC block (ISSC-X), which is nested constructed by decomposing the $1\times 1$ convolution in Xception to two group convolutions, and one ISSC block (ISSC-I), which is nested constructed by decomposing the $1\times 1$ group convolution in IGC to two group convolutions.\relax }{table.caption.11}{}}
\@writefile{lot}{\contentsline {table}{\numberline {9}{\ignorespaces Comparison between our ISSC approach, IGC and regular convolutions for plain networks.\relax }}{8}{table.caption.12}}
\newlabel{tab:comparisontoIGCvariousdepth}{{9}{8}{Comparison between our ISSC approach, IGC and regular convolutions for plain networks.\relax }{table.caption.12}{}}
\@writefile{lot}{\contentsline {table}{\numberline {10}{\ignorespaces Comparison to IGC and Xception for deeper networks.\relax }}{8}{table.caption.13}}
\newlabel{tab:comarisontodeepernetwork}{{10}{8}{Comparison to IGC and Xception for deeper networks.\relax }{table.caption.13}{}}
\bibcite{zhou2017incremental}{26}
\bibcite{zhou2016dorefa}{27}
\bibcite{zhu2016trained}{28}
\@writefile{lot}{\contentsline {table}{\numberline {11}{\ignorespaces Illustrating the advantages of our networks for the small model cases through the comparison to existing state-of-the-art architecture design algorithms.\relax }}{9}{table.caption.14}}
\newlabel{tab:smallmodelcomparison}{{11}{9}{Illustrating the advantages of our networks for the small model cases through the comparison to existing state-of-the-art architecture design algorithms.\relax }{table.caption.14}{}}
