This is BibTeX, Version 0.99dThe top-level auxiliary file: ISSC-V5.aux
I couldn't open style file ieee.bst
---line 20 of file ISSC-V5.aux
 : \bibstyle{ieee
 :               }
I'm skipping whatever remains of this command
I found no style file---while reading file ISSC-V5.aux
(There were 2 error messages)
