%!PS-Adobe-3.0 EPSF-3.0
%%Creator: MATLAB, The MathWorks, Inc. Version 8.3.0.532 (R2014a). Operating System: Microsoft Windows 10 Enterprise Insider Preview.
%%Title: D:\cvpr2018AuthorKit\latex\figure\diffL_bk_new.eps
%%CreationDate: 11/13/2017  15:23:21
%%DocumentNeededFonts: Helvetica
%%DocumentProcessColors: Cyan Magenta Yellow Black
%%LanguageLevel: 2
%%Pages: 1
%%BoundingBox:   -25   152   638   639
%%EndComments

%%BeginProlog
% MathWorks dictionary
/MathWorks 160 dict begin
% definition operators
/bdef {bind def} bind def
/ldef {load def} bind def
/xdef {exch def} bdef
/xstore {exch store} bdef
% operator abbreviations
/c  /clip ldef
/cc /concat ldef
/cp /closepath ldef
/gr /grestore ldef
/gs /gsave ldef
/mt /moveto ldef
/np /newpath ldef
/cm /currentmatrix ldef
/sm /setmatrix ldef
/rm /rmoveto ldef
/rl /rlineto ldef
/s {show newpath} bdef
/sc {setcmykcolor} bdef
/sr /setrgbcolor ldef
/sg /setgray ldef
/w /setlinewidth ldef
/j /setlinejoin ldef
/cap /setlinecap ldef
/rc {rectclip} bdef
/rf {rectfill} bdef
% page state control
/pgsv () def
/bpage {/pgsv save def} bdef
/epage {pgsv restore} bdef
/bplot /gsave ldef
/eplot {stroke grestore} bdef
% orientation switch
/portraitMode 0 def /landscapeMode 1 def /rotateMode 2 def
% coordinate system mappings
/dpi2point 0 def
% font control
/FontSize 0 def
/FMS {/FontSize xstore findfont [FontSize 0 0 FontSize neg 0 0]
  makefont setfont} bdef
/ISOLatin1Encoding where {pop /WindowsLatin1Encoding 256 array bdef
ISOLatin1Encoding WindowsLatin1Encoding copy pop
/.notdef/.notdef/quotesinglbase/florin/quotedblbase/ellipsis/dagger
/daggerdbl/circumflex/perthousand/Scaron/guilsinglleft/OE/.notdef/.notdef
/.notdef/.notdef/quoteleft/quoteright/quotedblleft/quotedblright/bullet
/endash/emdash/tilde/trademark/scaron/guilsinglright/oe/.notdef/.notdef
/Ydieresis WindowsLatin1Encoding 128 32 getinterval astore pop}
{/WindowsLatin1Encoding StandardEncoding bdef} ifelse
/reencode {exch dup where {pop load} {pop StandardEncoding} ifelse
  exch dup 3 1 roll findfont dup length dict begin
  { 1 index /FID ne {def}{pop pop} ifelse } forall
  /Encoding exch def currentdict end definefont pop} bdef
/isroman {findfont /CharStrings get /Agrave known} bdef
/FMSR {3 1 roll 1 index dup isroman {reencode} {pop pop} ifelse
  exch FMS} bdef
/csm {1 dpi2point div -1 dpi2point div scale neg translate
 dup landscapeMode eq {pop -90 rotate}
  {rotateMode eq {90 rotate} if} ifelse} bdef
% line types: solid, dotted, dashed, dotdash
/SO { [] 0 setdash } bdef
/DO { [.5 dpi2point mul 4 dpi2point mul] 0 setdash } bdef
/DA { [6 dpi2point mul] 0 setdash } bdef
/DD { [.5 dpi2point mul 4 dpi2point mul 6 dpi2point mul 4
  dpi2point mul] 0 setdash } bdef
% macros for lines and objects
/L {lineto stroke} bdef
/MP {3 1 roll moveto 1 sub {rlineto} repeat} bdef
/AP {{rlineto} repeat} bdef
/PDlw -1 def
/W {/PDlw currentlinewidth def setlinewidth} def
/PP {closepath eofill} bdef
/DP {closepath stroke} bdef
/MR {4 -2 roll moveto dup  0 exch rlineto exch 0 rlineto
  neg 0 exch rlineto closepath} bdef
/FR {MR stroke} bdef
/PR {MR fill} bdef
/L1i {{currentfile picstr readhexstring pop} image} bdef
/tMatrix matrix def
/MakeOval {newpath tMatrix currentmatrix pop translate scale
0 0 1 0 360 arc tMatrix setmatrix} bdef
/FO {MakeOval stroke} bdef
/PO {MakeOval fill} bdef
/PD {currentlinewidth 2 div 0 360 arc fill
   PDlw -1 eq not {PDlw w /PDlw -1 def} if} def
/FA {newpath tMatrix currentmatrix pop translate scale
  0 0 1 5 -2 roll arc tMatrix setmatrix stroke} bdef
/PA {newpath tMatrix currentmatrix pop	translate 0 0 moveto scale
  0 0 1 5 -2 roll arc closepath tMatrix setmatrix fill} bdef
/FAn {newpath tMatrix currentmatrix pop translate scale
  0 0 1 5 -2 roll arcn tMatrix setmatrix stroke} bdef
/PAn {newpath tMatrix currentmatrix pop translate 0 0 moveto scale
  0 0 1 5 -2 roll arcn closepath tMatrix setmatrix fill} bdef
/vradius 0 def /hradius 0 def /lry 0 def
/lrx 0 def /uly 0 def /ulx 0 def /rad 0 def
/MRR {/vradius xdef /hradius xdef /lry xdef /lrx xdef /uly xdef
  /ulx xdef newpath tMatrix currentmatrix pop ulx hradius add uly
  vradius add translate hradius vradius scale 0 0 1 180 270 arc 
  tMatrix setmatrix lrx hradius sub uly vradius add translate
  hradius vradius scale 0 0 1 270 360 arc tMatrix setmatrix
  lrx hradius sub lry vradius sub translate hradius vradius scale
  0 0 1 0 90 arc tMatrix setmatrix ulx hradius add lry vradius sub
  translate hradius vradius scale 0 0 1 90 180 arc tMatrix setmatrix
  closepath} bdef
/FRR {MRR stroke } bdef
/PRR {MRR fill } bdef
/MlrRR {/lry xdef /lrx xdef /uly xdef /ulx xdef /rad lry uly sub 2 div def
  newpath tMatrix currentmatrix pop ulx rad add uly rad add translate
  rad rad scale 0 0 1 90 270 arc tMatrix setmatrix lrx rad sub lry rad
  sub translate rad rad scale 0 0 1 270 90 arc tMatrix setmatrix
  closepath} bdef
/FlrRR {MlrRR stroke } bdef
/PlrRR {MlrRR fill } bdef
/MtbRR {/lry xdef /lrx xdef /uly xdef /ulx xdef /rad lrx ulx sub 2 div def
  newpath tMatrix currentmatrix pop ulx rad add uly rad add translate
  rad rad scale 0 0 1 180 360 arc tMatrix setmatrix lrx rad sub lry rad
  sub translate rad rad scale 0 0 1 0 180 arc tMatrix setmatrix
  closepath} bdef
/FtbRR {MtbRR stroke } bdef
/PtbRR {MtbRR fill } bdef
/stri 6 array def /dtri 6 array def
/smat 6 array def /dmat 6 array def
/tmat1 6 array def /tmat2 6 array def /dif 3 array def
/asub {/ind2 exch def /ind1 exch def dup dup
  ind1 get exch ind2 get sub exch } bdef
/tri_to_matrix {
  2 0 asub 3 1 asub 4 0 asub 5 1 asub
  dup 0 get exch 1 get 7 -1 roll astore } bdef
/compute_transform {
  dmat dtri tri_to_matrix tmat1 invertmatrix 
  smat stri tri_to_matrix tmat2 concatmatrix } bdef
/ds {stri astore pop} bdef
/dt {dtri astore pop} bdef
/db {2 copy /cols xdef /rows xdef mul dup 3 mul string
  currentfile 
  3 index 0 eq {/ASCIIHexDecode filter}
  {/ASCII85Decode filter 3 index 2 eq {/RunLengthDecode filter} if }
  ifelse exch readstring pop
  dup 0 3 index getinterval /rbmap xdef
  dup 2 index dup getinterval /gbmap xdef
  1 index dup 2 mul exch getinterval /bbmap xdef pop pop}bdef
/it {gs np dtri aload pop moveto lineto lineto cp c
  cols rows 8 compute_transform 
  rbmap gbmap bbmap true 3 colorimage gr}bdef
/il {newpath moveto lineto stroke}bdef
currentdict end def
%%EndProlog

%%BeginSetup
MathWorks begin

0 cap

end
%%EndSetup

%%Page: 1 1
%%BeginPageSetup
%%PageBoundingBox:   -25   152   638   639
MathWorks begin
bpage
%%EndPageSetup

%%BeginObject: obj1
bplot

/dpi2point 12 def
portraitMode -0300 7668 csm

    0     0  7963  5841 rc
88 dict begin %Colortable dictionary
/c0 { 0.000000 0.000000 0.000000 sr} bdef
/c1 { 1.000000 1.000000 1.000000 sr} bdef
/c2 { 0.900000 0.000000 0.000000 sr} bdef
/c3 { 0.000000 0.820000 0.000000 sr} bdef
/c4 { 0.000000 0.000000 0.800000 sr} bdef
/c5 { 0.910000 0.820000 0.320000 sr} bdef
/c6 { 1.000000 0.260000 0.820000 sr} bdef
/c7 { 0.000000 0.820000 0.820000 sr} bdef
c0
1 j
1 sg
   0    0 7964 5842 rf
6 w
0 4760 6172 0 0 -4760 529 5198 4 MP
PP
-6172 0 0 4760 6172 0 0 -4760 529 5198 5 MP stroke
4 w
DO
0 sg
 914 5198 mt  914  438 L
 914  438 mt  914  438 L
1686 5198 mt 1686  438 L
1686  438 mt 1686  438 L
2457 5198 mt 2457  438 L
2457  438 mt 2457  438 L
3229 5198 mt 3229  438 L
3229  438 mt 3229  438 L
4000 5198 mt 4000  438 L
4000  438 mt 4000  438 L
4772 5198 mt 4772  438 L
4772  438 mt 4772  438 L
5543 5198 mt 5543  438 L
5543  438 mt 5543  438 L
6315 5198 mt 6315  438 L
6315  438 mt 6315  438 L
 529 5198 mt 6701 5198 L
6701 5198 mt 6701 5198 L
 529 3611 mt 6701 3611 L
6701 3611 mt 6701 3611 L
 529 2024 mt 6701 2024 L
6701 2024 mt 6701 2024 L
 529  438 mt 6701  438 L
6701  438 mt 6701  438 L
SO
6 w
 529  438 mt 6701  438 L
 529 5198 mt 6701 5198 L
6701 5198 mt 6701  438 L
 529 5198 mt  529  438 L
 529 5198 mt 6701 5198 L
 529 5198 mt  529  438 L
 914 5198 mt  914 5136 L
 914  438 mt  914  499 L
%%IncludeResource: font Helvetica
/Helvetica /WindowsLatin1Encoding 192 FMSR

 861 5410 mt 
(1) s
1686 5198 mt 1686 5136 L
1686  438 mt 1686  499 L
1633 5410 mt 
(2) s
2457 5198 mt 2457 5136 L
2457  438 mt 2457  499 L
2404 5410 mt 
(3) s
3229 5198 mt 3229 5136 L
3229  438 mt 3229  499 L
3176 5410 mt 
(4) s
4000 5198 mt 4000 5136 L
4000  438 mt 4000  499 L
3947 5410 mt 
(5) s
4772 5198 mt 4772 5136 L
4772  438 mt 4772  499 L
4719 5410 mt 
(6) s
5543 5198 mt 5543 5136 L
5543  438 mt 5543  499 L
5490 5410 mt 
(7) s
6315 5198 mt 6315 5136 L
6315  438 mt 6315  499 L
6262 5410 mt 
(8) s
 529 5198 mt  590 5198 L
6701 5198 mt 6639 5198 L
 281 5269 mt 
(60) s
 529 3611 mt  590 3611 L
6701 3611 mt 6639 3611 L
 281 3682 mt 
(62) s
 529 2024 mt  590 2024 L
6701 2024 mt 6639 2024 L
 281 2095 mt 
(64) s
 529  438 mt  590  438 L
6701  438 mt 6639  438 L
 281  509 mt 
(66) s
 529  438 mt 6701  438 L
 529 5198 mt 6701 5198 L
6701 5198 mt 6701  438 L
 529 5198 mt  529  438 L
gs 529 438 6173 4761 rc
24 w
/c8 { 0.000000 0.447059 0.741176 sr} bdef
c8
2315 3142 771 643 772 200 771 -227 772 -1774 914 2968 6 MP stroke
gs 804 857 5622 4206 rc
  42   42  914 2968 PO
  42   42 1686 1194 PO
  42   42 2457  967 PO
  42   42 3229 1167 PO
  42   42 4000 1810 PO
  42   42 6315 4952 PO
  42   42  914 2968 FO
  42   42 1686 1194 FO
  42   42 2457  967 FO
  42   42 3229 1167 FO
  42   42 4000 1810 FO
  42   42 6315 4952 FO
gr

gr

24 w
c8
0 sg
 183 3213 mt  -90 rotate
(Accuracy) s
90 rotate
%%IncludeResource: font Helvetica
/Helvetica /WindowsLatin1Encoding 120 FMSR

 512 5241 mt 
( ) s
6685  480 mt 
( ) s
gs 529 438 6173 4761 rc
c8
0 842 914 2547 2 MP stroke
108 0 860 2547 2 MP stroke
108 0 860 3389 2 MP stroke
0 283 1686 1053 2 MP stroke
108 0 1632 1053 2 MP stroke
108 0 1632 1336 2 MP stroke
0 361 2457 787 2 MP stroke
108 0 2403 787 2 MP stroke
108 0 2403 1148 2 MP stroke
0 614 3229 860 2 MP stroke
108 0 3175 860 2 MP stroke
108 0 3175 1474 2 MP stroke
0 352 4000 1634 2 MP stroke
108 0 3946 1634 2 MP stroke
108 0 3946 1986 2 MP stroke
0 273 6315 4815 2 MP stroke
108 0 6261 4815 2 MP stroke
108 0 6261 5088 2 MP stroke
2315 3142 771 643 772 200 771 -227 772 -1774 914 2968 6 MP stroke
DD
18 w
/c9 { 1.000000 0.000000 0.000000 sr} bdef
c9
0 -4761 4000 5199 2 MP stroke
SO
6 w
gr

6 w
c9
4 w
DO
SO
6 w
0 sg
 529 5198 mt 6701 5198 L
6701 5198 mt 6701  438 L
 914 5198 mt  914 5136 L
%%IncludeResource: font Helvetica
/Helvetica /WindowsLatin1Encoding 192 FMSR

 861 5410 mt 
(1) s
1686 5198 mt 1686 5136 L
1633 5410 mt 
(2) s
2457 5198 mt 2457 5136 L
2404 5410 mt 
(3) s
3229 5198 mt 3229 5136 L
3176 5410 mt 
(4) s
4000 5198 mt 4000 5136 L
3947 5410 mt 
(5) s
4772 5198 mt 4772 5136 L
4719 5410 mt 
(6) s
5543 5198 mt 5543 5136 L
5490 5410 mt 
(7) s
6315 5198 mt 6315 5136 L
6262 5410 mt 
(8) s
6701 5198 mt 6639 5198 L
6735 5269 mt 
(0) s
6701 4246 mt 6639 4246 L
6735 4317 mt 
(100) s
6701 3294 mt 6639 3294 L
6735 3365 mt 
(150) s
6701 2342 mt 6639 2342 L
6735 2413 mt 
(175) s
6701 1390 mt 6639 1390 L
6735 1461 mt 
(187.5) s
6701  438 mt 6639  438 L
6735  509 mt 
(193.75) s
gs 529 438 6173 4761 rc
24 w
/c10 { 1.000000 0.600000 0.784314 sr} bdef
c10
2315 800 771 -952 772 -724 771 -1028 772 -1180 914 4588 6 MP stroke
gs 804 594 5622 4105 rc
0 j
0 -66 -66 0 0 66 66 0 881 4555 5 MP
gs
PP
gr
DP
0 -66 -66 0 0 66 66 0 1653 3375 5 MP
gs
PP
gr
DP
0 -66 -66 0 0 66 66 0 2424 2347 5 MP
gs
PP
gr
DP
0 -66 -66 0 0 66 66 0 3196 1623 5 MP
gs
PP
gr
DP
0 -66 -66 0 0 66 66 0 3967 671 5 MP
gs
PP
gr
DP
0 -66 -66 0 0 66 66 0 6282 1471 5 MP
gs
PP
gr
DP
gr

gr

24 w
c10
0 sg
3561 5606 mt 
(L) s
7754 3539 mt  -90 rotate
(Width \(Sparsity\)) s
90 rotate
gs 529 438 6173 4761 rc
/c11 { 0.466667 0.674510 0.188235 sr} bdef
c11
2315 -14 771 17 772 30 771 119 772 3832 914 1001 6 MP stroke
gs 804 891 5622 4219 rc
0 j
-48 83 -48 -83 96 0 866 1029 4 MP
gs
PP
gr
DP
-48 83 -48 -83 96 0 1638 4861 4 MP
gs
PP
gr
DP
-48 83 -48 -83 96 0 2409 4980 4 MP
gs
PP
gr
DP
-48 83 -48 -83 96 0 3181 5010 4 MP
gs
PP
gr
DP
-48 83 -48 -83 96 0 3952 5027 4 MP
gs
PP
gr
DP
-48 83 -48 -83 96 0 6267 5013 4 MP
gs
PP
gr
DP
gr

6 w
gr

6 w
c11
1 sg
0 789 1663 0 0 -789 4935 2662 4 MP
PP
-1663 0 0 789 1663 0 0 -789 4935 2662 5 MP stroke
4 w
DO
SO
6 w
0 sg
4935 1873 mt 6598 1873 L
4935 2662 mt 6598 2662 L
6598 2662 mt 6598 1873 L
4935 2662 mt 4935 1873 L
4935 2662 mt 6598 2662 L
4935 2662 mt 4935 1873 L
4935 1873 mt 6598 1873 L
4935 2662 mt 6598 2662 L
6598 2662 mt 6598 1873 L
4935 2662 mt 4935 1873 L
5405 2087 mt 
(Accuracy) s
gs 4935 1873 1664 790 rc
24 w
c8
361 0 5007 2018 2 MP stroke
gs 5078 1908 221 221 rc
  42   42 5188 2018 PO
  42   42 5188 2018 FO
gr

gr

24 w
c8
0 sg
5405 2336 mt 
(Width) s
gs 4935 1873 1664 790 rc
c10
361 0 5007 2267 2 MP stroke
gs 5078 2157 221 221 rc
0 j
0 -66 -66 0 0 66 66 0 5155 2234 5 MP
gs
PP
gr
DP
gr

gr

c10
0 sg
5405 2585 mt 
(Non-Sparsity) s
gs 4935 1873 1664 790 rc
c11
361 0 5007 2516 2 MP stroke
gs 5078 2406 221 221 rc
0 j
-48 83 -48 -83 96 0 5140 2544 4 MP
gs
PP
gr
DP
gr

6 w
gr

6 w
c11
0 sg
%%IncludeResource: font Helvetica
/Helvetica /WindowsLatin1Encoding 144 FMSR

7107 2396 mt 
(\(0.117\)) s
7107 3367 mt 
(\(0.100\)) s
7116 4297 mt 
(\(0.067\)) s
7412  497 mt 
(\(0.129\)) s
7299 1442 mt 
(\(0.125\)) s

end %%Color Dict

eplot
%%EndObject

epage
end

showpage

%%Trailer
%%EOF
