\relax 
\providecommand\hyper@newdestlabel[2]{}
\providecommand\HyperFirstAtBeginDocument{\AtBeginDocument}
\HyperFirstAtBeginDocument{\ifx\hyper@anchor\@undefined
\global\let\oldcontentsline\contentsline
\gdef\contentsline#1#2#3#4{\oldcontentsline{#1}{#2}{#3}}
\global\let\oldnewlabel\newlabel
\gdef\newlabel#1#2{\newlabelxx{#1}#2}
\gdef\newlabelxx#1#2#3#4#5#6{\oldnewlabel{#1}{{#2}{#3}}}
\AtEndDocument{\ifx\hyper@anchor\@undefined
\let\contentsline\oldcontentsline
\let\newlabel\oldnewlabel
\fi}
\fi}
\global\let\hyper@last\relax 
\gdef\HyperFirstAtBeginDocument#1{#1}
\providecommand\HyField@AuxAddToFields[1]{}
\providecommand\HyField@AuxAddToCoFields[2]{}
\citation{HeZRS16}
\citation{ZhangQXW17}
\citation{IoannouRCC16}
\citation{Chollet16a}
\citation{zhou2017incremental}
\citation{HanMD15}
\citation{courbariaux2016binarized}
\citation{rastegari2016xnor}
\citation{li2016ternary}
\citation{zhou2016dorefa}
\citation{zhu2016trained}
\citation{liu2015sparse}
\citation{park2016faster}
\citation{WenWWCL16}
\citation{mao2017exploring}
\citation{XieGDTH16}
\citation{ZhaoWLTZ16}
\providecommand \oddpage@label [2]{}
\@writefile{toc}{\contentsline {section}{\numberline {1}\hskip -1em.\nobreakspace  {}Introduction}{1}{section.1}}
\@writefile{brf}{\backcite{HeZRS16}{{1}{1}{section.1}}}
\@writefile{brf}{\backcite{ZhangQXW17}{{1}{1}{section.1}}}
\@writefile{brf}{\backcite{IoannouRCC16}{{1}{1}{section.1}}}
\@writefile{brf}{\backcite{Chollet16a}{{1}{1}{section.1}}}
\@writefile{toc}{\contentsline {section}{\numberline {2}\hskip -1em.\nobreakspace  {}Related Work}{1}{section.2}}
\@writefile{brf}{\backcite{zhou2017incremental,HanMD15}{{1}{2}{section.2}}}
\@writefile{brf}{\backcite{courbariaux2016binarized,rastegari2016xnor}{{1}{2}{section.2}}}
\@writefile{brf}{\backcite{li2016ternary,zhou2016dorefa,zhu2016trained}{{1}{2}{section.2}}}
\citation{he2017channel}
\citation{wen2017coordinating}
\citation{LiKDSG16}
\citation{IoannouRSCC15}
\citation{JaderbergVZ14}
\citation{MamaletG12}
\citation{DentonZBLF14}
\citation{JaderbergVZ14}
\citation{DentonZBLF14}
\citation{KimPYCYS15}
\citation{JaderbergVZ14}
\citation{HeZRS16}
\citation{ZhangQXW17}
\citation{ZhangQXW17}
\citation{Chollet16a}
\citation{IoannouRCC16}
\@writefile{lof}{\contentsline {figure}{\numberline {1}{\ignorespaces Specification of Interleave Structured Sparse Convolution (IISC), with $L=3$, $K_1=K_2=K_3=2$ and width $C=8$.Solid line with arrow representing the sparse weights $\boldsymbol  {W}_i$, dash line with arrow representing the permutation matrix $\boldsymbol  {P}_i$. When Complementary Condition is satisfied, The constructed weights $\boldsymbol  {W}$ is dense, \emph  {i.e}\onedot  , the output channel has only one path connected to all the input channels.The path connected through gray feature maps with bold line shows such a dense connection path. Permutation matrix $\boldsymbol  {P}_i$ and the relation $\DOTSB \prod@ \slimits@ _{l=1}^{L}K_l=C$ promise that the IISC satisfy the Complementary Condition, \emph  {i.e}\onedot  , $W$ is dense.\relax }}{2}{figure.caption.1}}
\@writefile{brf}{\backcite{liu2015sparse,park2016faster}{{2}{2}{section.2}}}
\@writefile{brf}{\backcite{WenWWCL16,mao2017exploring}{{2}{2}{section.2}}}
\@writefile{brf}{\backcite{XieGDTH16, ZhaoWLTZ16}{{2}{2}{section.2}}}
\@writefile{brf}{\backcite{he2017channel}{{2}{2}{section.2}}}
\@writefile{brf}{\backcite{wen2017coordinating,LiKDSG16}{{2}{2}{section.2}}}
\@writefile{brf}{\backcite{IoannouRSCC15, JaderbergVZ14, MamaletG12}{{2}{2}{section.2}}}
\@writefile{brf}{\backcite{DentonZBLF14, JaderbergVZ14}{{2}{2}{section.2}}}
\@writefile{brf}{\backcite{DentonZBLF14, KimPYCYS15, JaderbergVZ14}{{2}{2}{section.2}}}
\@writefile{brf}{\backcite{HeZRS16}{{2}{2}{section.2}}}
\@writefile{brf}{\backcite{ZhangQXW17}{{2}{2}{section.2}}}
\@writefile{brf}{\backcite{ZhangQXW17}{{2}{2}{section.2}}}
\@writefile{brf}{\backcite{Chollet16a}{{2}{2}{section.2}}}
\@writefile{brf}{\backcite{IoannouRCC16}{{2}{2}{section.2}}}
\@writefile{toc}{\contentsline {section}{\numberline {3}\hskip -1em.\nobreakspace  {}Our Approach}{2}{section.3}}
\citation{ZhangQXW17}
\citation{ZhangQXW17}
\@writefile{toc}{\contentsline {subsection}{\numberline {3.1}\hskip -1em.\nobreakspace  {}A Review of IGC, Xception and Deep Roots}{3}{subsection.3.1}}
\newlabel{eqn:twosparsematrixproduct}{{2}{3}{\hskip -1em.~A Review of IGC, Xception and Deep Roots}{equation.3.2}{}}
\newlabel{eqn:groupconvolution}{{3}{3}{\hskip -1em.~A Review of IGC, Xception and Deep Roots}{equation.3.3}{}}
\@writefile{brf}{\backcite{ZhangQXW17}{{3}{3.1}{equation.3.3}}}
\newlabel{eqn:channelwiseconvolution}{{4}{3}{\hskip -1em.~A Review of IGC, Xception and Deep Roots}{equation.3.4}{}}
\@writefile{toc}{\contentsline {subsection}{\numberline {3.2}\hskip -1em.\nobreakspace  {}Interleaved Structured Sparse Convolutions}{3}{subsection.3.2}}
\newlabel{sec:ISSC}{{3.2}{3}{\hskip -1em.~Interleaved Structured Sparse Convolutions}{subsection.3.2}{}}
\newlabel{eqn:moresparsematrixproduct}{{6}{3}{\hskip -1em.~Interleaved Structured Sparse Convolutions}{equation.3.6}{}}
\@writefile{brf}{\backcite{ZhangQXW17}{{3}{3.2}{equation.3.6}}}
\citation{ZhangQXW17}
\newlabel{eqn:multiplicationproperty}{{7}{4}{\hskip -1em.~Interleaved Structured Sparse Convolutions}{equation.3.7}{}}
\newlabel{eqn:balancecondition}{{12}{4}{\hskip -1em.~Interleaved Structured Sparse Convolutions}{equation.3.12}{}}
\newlabel{eqn:optimalLforminimalC}{{15}{4}{\hskip -1em.~Interleaved Structured Sparse Convolutions}{equation.3.15}{}}
\@writefile{toc}{\contentsline {subsection}{\numberline {3.3}\hskip -1em.\nobreakspace  {}Discussions}{4}{subsection.3.3}}
\@writefile{brf}{\backcite{ZhangQXW17}{{4}{3}{Hfootnote.3}}}
\citation{krizhevsky2009learning}
\citation{Le2015TinyIV}
\citation{ILSVRC15}
\@writefile{toc}{\contentsline {section}{\numberline {4}\hskip -1em.\nobreakspace  {}Experiment}{5}{section.4}}
\@writefile{toc}{\contentsline {subsection}{\numberline {4.1}\hskip -1em.\nobreakspace  {}Datasets}{5}{subsection.4.1}}
\@writefile{brf}{\backcite{krizhevsky2009learning}{{5}{4.1}{subsection.4.1}}}
\@writefile{brf}{\backcite{Le2015TinyIV}{{5}{4.1}{subsection.4.1}}}
\@writefile{brf}{\backcite{ILSVRC15}{{5}{4.1}{subsection.4.1}}}
\@writefile{toc}{\contentsline {subsection}{\numberline {4.2}\hskip -1em.\nobreakspace  {}Empirical Analysis}{5}{subsection.4.2}}
\citation{ZhangQXW17}
\citation{ZhangQXW17}
\@writefile{lof}{\contentsline {figure}{\numberline {2}{\ignorespaces Illustrating how the number of channels ($K$) in each branch in group convolutions affects the performance in our approach. The results are reported on CIFAR-$100$.\relax }}{6}{figure.caption.2}}
\providecommand*\caption@xref[2]{\@setref\relax\@undefined{#1}}
\newlabel{fig:effectofk}{{2}{6}{Illustrating how the number of channels ($K$) in each branch in group convolutions affects the performance in our approach. The results are reported on CIFAR-$100$.\relax }{figure.caption.2}{}}
\@writefile{lot}{\contentsline {table}{\numberline {1}{\ignorespaces Network structure. We use network structure with 3 stages, with each stage down-sampling to next stage and then doubling the width. Xception-W$c$ and ISSC-W$c$ are used for experiments varying the depth of networks, with depth as $3B+2$, while Xception*-W$c$ and ISSC*-W$c$ are used for experiments varying the width of networks, with the first convolution layer keeping fixed. $L$ and $K$ are the hyper-parameters of ISSC. For ISSC-W$64$, K for each stage are $\{S_1=8,S_2=16,S_3=32\}$, while for ISSC-W$80$, K for each stage are $\{S_1=10,S_2=16,S_3=20\}$. The $L^*$ for each stage of ISSC-W$c$ are determined by $L^*=\qopname  \relax o{log}_K(C)$. $3\times 3 \text  { CW}$ represent channel-wise convolution with spatial size $3\times 3$. \relax }}{6}{table.caption.5}}
\newlabel{tab:networkstructures}{{1}{6}{Network structure. We use network structure with 3 stages, with each stage down-sampling to next stage and then doubling the width. Xception-W$c$ and ISSC-W$c$ are used for experiments varying the depth of networks, with depth as $3B+2$, while Xception*-W$c$ and ISSC*-W$c$ are used for experiments varying the width of networks, with the first convolution layer keeping fixed. $L$ and $K$ are the hyper-parameters of ISSC. For ISSC-W$64$, K for each stage are $\{S_1=8,S_2=16,S_3=32\}$, while for ISSC-W$80$, K for each stage are $\{S_1=10,S_2=16,S_3=20\}$. The $L^*$ for each stage of ISSC-W$c$ are determined by $L^*=\log _K(C)$. $3\times 3 \text { CW}$ represent channel-wise convolution with spatial size $3\times 3$. \relax }{table.caption.5}{}}
\@writefile{lof}{\contentsline {figure}{\numberline {3}{\ignorespaces Illustrating how the performance changes when different numbers of layers are to form our ISSC block. The numbers of channels in each branch of group convolution are chosen to satisfy the balance condition. \relax }}{6}{figure.caption.3}}
\newlabel{fig:effectofL}{{\caption@xref {fig:effectofL}{ on input line 789}}{6}{\hskip -1em.~Empirical Analysis}{figure.caption.3}{}}
\@writefile{toc}{\contentsline {subsection}{\numberline {4.3}\hskip -1em.\nobreakspace  {}Comparison With Xception}{6}{subsection.4.3}}
\newlabel{sec:comparisonwithxception}{{4.3}{6}{\hskip -1em.~Comparison With Xception}{subsection.4.3}{}}
\newlabel{fig-d2w-param}{{4a}{7}{\relax }{figure.caption.4}{}}
\newlabel{sub@fig-d2w-param}{{a}{7}{\relax }{figure.caption.4}{}}
\newlabel{fig-d2w-flops}{{4b}{7}{\relax }{figure.caption.4}{}}
\newlabel{sub@fig-d2w-flops}{{b}{7}{\relax }{figure.caption.4}{}}
\@writefile{lof}{\contentsline {figure}{\numberline {4}{\ignorespaces Illustrating how the performances of our networks change for wider/deeper networks. The networks use the structure ISSC*-W$c$ in table \ref  {tab:networkstructures}. Each point represent for one model, \emph  {e.g}\onedot  , The point $W=160$ is model with 20 layers and width of fist stage as 160. The results show that over networks with identity mapping, wider networks with ISSC have better performance than deeper network on the same level of \#params and FLOPs.\relax }}{7}{figure.caption.4}}
\newlabel{fig:deeperwider}{{4}{7}{Illustrating how the performances of our networks change for wider/deeper networks. The networks use the structure ISSC*-W$c$ in table \ref {tab:networkstructures}. Each point represent for one model, \eg , The point $W=160$ is model with 20 layers and width of fist stage as 160. The results show that over networks with identity mapping, wider networks with ISSC have better performance than deeper network on the same level of \#params and FLOPs.\relax }{figure.caption.4}{}}
\@writefile{lot}{\contentsline {table}{\numberline {2}{\ignorespaces Comparison of \#params and FLOPs of different network structures. IGC-W$48$ is the network IGC-$L24M2$ in\nobreakspace  {}\cite  {ZhangQXW17}. \#params is the number of parameters of all convolution layers (the number of classifiers are different among different dataset, so it's not included.).\relax }}{7}{table.caption.6}}
\@writefile{brf}{\backcite{ZhangQXW17}{{7}{2}{table.caption.6}}}
\newlabel{dw-hconv-params-flops}{{2}{7}{Comparison of \#params and FLOPs of different network structures. IGC-W$48$ is the network IGC-$L24M2$ in~\cite {ZhangQXW17}. \#params is the number of parameters of all convolution layers (the number of classifiers are different among different dataset, so it's not included.).\relax }{table.caption.6}{}}
\@writefile{lot}{\contentsline {table}{\numberline {3}{\ignorespaces Comparing Xception and our ISSC block, which is nested constructed by decomposing the $1\times 1$ convolution in Xception to two group convolutions.\relax }}{7}{table.caption.7}}
\newlabel{tab:comparisontoxception8layers}{{3}{7}{Comparing Xception and our ISSC block, which is nested constructed by decomposing the $1\times 1$ convolution in Xception to two group convolutions.\relax }{table.caption.7}{}}
\@writefile{lot}{\contentsline {table}{\numberline {4}{\ignorespaces Comparing IGC, one ISSC block (ISSC-X), which is nested constructed by decomposing the $1\times 1$ convolution in Xception to two group convolutions, and one ISSC block (ISSC-I), which is nested constructed by decomposing the $1\times 1$ group convolution in IGC to two group convolutions.\relax }}{7}{table.caption.8}}
\newlabel{tab:comparisontoIGC8layers}{{4}{7}{Comparing IGC, one ISSC block (ISSC-X), which is nested constructed by decomposing the $1\times 1$ convolution in Xception to two group convolutions, and one ISSC block (ISSC-I), which is nested constructed by decomposing the $1\times 1$ group convolution in IGC to two group convolutions.\relax }{table.caption.8}{}}
\citation{ZhangQXW17}
\citation{singh2016swapout}
\citation{WangWZZ16}
\citation{he2016deep}
\citation{huang2016deep}
\citation{huang2017snapshot}
\citation{zhao2016connection}
\citation{targ2016resnet}
\citation{cordeirowide}
\citation{cordeirowide}
\citation{huang2017snapshot}
\citation{huang2017snapshot}
\citation{HuangLW16a}
\@writefile{lot}{\contentsline {table}{\numberline {5}{\ignorespaces Comparison between our ISSC approach, regular convolutions, Xception over networks with various depths and identity mappings as skip connections.\relax }}{8}{table.caption.9}}
\newlabel{tab:comparisontoXceptionvariousdepth}{{5}{8}{Comparison between our ISSC approach, regular convolutions, Xception over networks with various depths and identity mappings as skip connections.\relax }{table.caption.9}{}}
\@writefile{lot}{\contentsline {table}{\numberline {6}{\ignorespaces Comparison to Xception and IGC over $20$-layer networks with various widths.\relax }}{8}{table.caption.10}}
\newlabel{tab:comparedIGCXceptionvariouswidth}{{6}{8}{Comparison to Xception and IGC over $20$-layer networks with various widths.\relax }{table.caption.10}{}}
\@writefile{lot}{\contentsline {table}{\numberline {7}{\ignorespaces Comparison between our ISSC approach, IGC on shallow network structure with identity mapping as skip connection.\relax }}{8}{table.caption.11}}
\newlabel{tab:comparisontoIGCvariousdepth}{{7}{8}{Comparison between our ISSC approach, IGC on shallow network structure with identity mapping as skip connection.\relax }{table.caption.11}{}}
\@writefile{lot}{\contentsline {table}{\numberline {8}{\ignorespaces Comparison to IGC and Xception for deeper networks on CIFAR-100.\relax }}{8}{table.caption.12}}
\newlabel{tab:comarisontodeepernetwork}{{8}{8}{Comparison to IGC and Xception for deeper networks on CIFAR-100.\relax }{table.caption.12}{}}
\@writefile{toc}{\contentsline {subsection}{\numberline {4.4}\hskip -1em.\nobreakspace  {}Comparison With IGC.}{8}{subsection.4.4}}
\newlabel{sec:comparisonwithIGC}{{4.4}{8}{\hskip -1em.~Comparison With IGC}{subsection.4.4}{}}
\@writefile{brf}{\backcite{ZhangQXW17}{{8}{4.4}{subsection.4.4}}}
\@writefile{toc}{\contentsline {subsection}{\numberline {4.5}\hskip -1em.\nobreakspace  {}Performance Comparison for Small-Model Networks}{8}{subsection.4.5}}
\bibstyle{ieee}
\bibdata{ConvApproximation}
\bibcite{Chollet16a}{1}
\bibcite{cordeirowide}{2}
\bibcite{courbariaux2016binarized}{3}
\bibcite{DentonZBLF14}{4}
\bibcite{HanMD15}{5}
\bibcite{HeZRS16}{6}
\bibcite{he2016deep}{7}
\bibcite{he2017channel}{8}
\bibcite{huang2017snapshot}{9}
\bibcite{HuangLW16a}{10}
\bibcite{huang2016deep}{11}
\bibcite{IoannouRCC16}{12}
\bibcite{IoannouRSCC15}{13}
\bibcite{JaderbergVZ14}{14}
\bibcite{KimPYCYS15}{15}
\bibcite{krizhevsky2009learning}{16}
\bibcite{Le2015TinyIV}{17}
\bibcite{li2016ternary}{18}
\bibcite{LiKDSG16}{19}
\bibcite{liu2015sparse}{20}
\bibcite{MamaletG12}{21}
\bibcite{mao2017exploring}{22}
\bibcite{park2016faster}{23}
\bibcite{rastegari2016xnor}{24}
\bibcite{ILSVRC15}{25}
\@writefile{brf}{\backcite{singh2016swapout}{{9}{\caption@xref {??}{ on input line 1600}}{table.caption.13}}}
\@writefile{brf}{\backcite{WangWZZ16}{{9}{\caption@xref {??}{ on input line 1603}}{table.caption.13}}}
\@writefile{brf}{\backcite{he2016deep}{{9}{\caption@xref {??}{ on input line 1609}}{table.caption.13}}}
\@writefile{brf}{\backcite{huang2016deep}{{9}{\caption@xref {??}{ on input line 1611}}{table.caption.13}}}
\@writefile{brf}{\backcite{huang2017snapshot}{{9}{\caption@xref {??}{ on input line 1613}}{table.caption.13}}}
\@writefile{brf}{\backcite{zhao2016connection}{{9}{\caption@xref {??}{ on input line 1616}}{table.caption.13}}}
\@writefile{brf}{\backcite{targ2016resnet}{{9}{\caption@xref {??}{ on input line 1618}}{table.caption.13}}}
\@writefile{brf}{\backcite{cordeirowide}{{9}{\caption@xref {??}{ on input line 1620}}{table.caption.13}}}
\@writefile{brf}{\backcite{cordeirowide}{{9}{\caption@xref {??}{ on input line 1621}}{table.caption.13}}}
\@writefile{brf}{\backcite{huang2017snapshot}{{9}{\caption@xref {??}{ on input line 1623}}{table.caption.13}}}
\@writefile{brf}{\backcite{huang2017snapshot}{{9}{\caption@xref {??}{ on input line 1626}}{table.caption.13}}}
\@writefile{brf}{\backcite{HuangLW16a}{{9}{\caption@xref {??}{ on input line 1627}}{table.caption.13}}}
\@writefile{lot}{\contentsline {table}{\numberline {9}{\ignorespaces Illustrating the advantages of our networks for the small model cases through the comparison to existing state-of-the-art architecture design algorithms.\relax }}{9}{table.caption.13}}
\newlabel{tab:smallmodelcomparison}{{9}{9}{Illustrating the advantages of our networks for the small model cases through the comparison to existing state-of-the-art architecture design algorithms.\relax }{table.caption.13}{}}
\@writefile{toc}{\contentsline {section}{\numberline {5}\hskip -1em.\nobreakspace  {}Conclusions}{9}{section.5}}
\bibcite{singh2016swapout}{26}
\bibcite{WangWZZ16}{27}
\bibcite{WenWWCL16}{28}
\bibcite{wen2017coordinating}{29}
\bibcite{XieGDTH16}{30}
\bibcite{ZhangQXW17}{31}
\bibcite{ZhaoWLTZ16}{32}
\bibcite{zhao2016connection}{33}
\bibcite{zhou2017incremental}{34}
\bibcite{zhou2016dorefa}{35}
\bibcite{zhu2016trained}{36}
