%!PS-Adobe-3.0 EPSF-3.0
%%Creator: MATLAB, The MathWorks, Inc. Version 8.3.0.532 (R2014a). Operating System: Microsoft Windows Server 2012 R2 Datacenter.
%%Title: \\minint-0ufabgc\d$\Project\CVPR18\diffL_bk_new.eps
%%CreationDate: 11/13/2017  14:09:14
%%DocumentNeededFonts: Helvetica
%%DocumentProcessColors: Cyan Magenta Yellow Black
%%LanguageLevel: 2
%%Pages: 1
%%BoundingBox: 27 188 585 590
%%EndComments

%%BeginProlog
% MathWorks dictionary
/MathWorks 160 dict begin
% definition operators
/bdef {bind def} bind def
/ldef {load def} bind def
/xdef {exch def} bdef
/xstore {exch store} bdef
% operator abbreviations
/c  /clip ldef
/cc /concat ldef
/cp /closepath ldef
/gr /grestore ldef
/gs /gsave ldef
/mt /moveto ldef
/np /newpath ldef
/cm /currentmatrix ldef
/sm /setmatrix ldef
/rm /rmoveto ldef
/rl /rlineto ldef
/s {show newpath} bdef
/sc {setcmykcolor} bdef
/sr /setrgbcolor ldef
/sg /setgray ldef
/w /setlinewidth ldef
/j /setlinejoin ldef
/cap /setlinecap ldef
/rc {rectclip} bdef
/rf {rectfill} bdef
% page state control
/pgsv () def
/bpage {/pgsv save def} bdef
/epage {pgsv restore} bdef
/bplot /gsave ldef
/eplot {stroke grestore} bdef
% orientation switch
/portraitMode 0 def /landscapeMode 1 def /rotateMode 2 def
% coordinate system mappings
/dpi2point 0 def
% font control
/FontSize 0 def
/FMS {/FontSize xstore findfont [FontSize 0 0 FontSize neg 0 0]
  makefont setfont} bdef
/ISOLatin1Encoding where {pop /WindowsLatin1Encoding 256 array bdef
ISOLatin1Encoding WindowsLatin1Encoding copy pop
/.notdef/.notdef/quotesinglbase/florin/quotedblbase/ellipsis/dagger
/daggerdbl/circumflex/perthousand/Scaron/guilsinglleft/OE/.notdef/.notdef
/.notdef/.notdef/quoteleft/quoteright/quotedblleft/quotedblright/bullet
/endash/emdash/tilde/trademark/scaron/guilsinglright/oe/.notdef/.notdef
/Ydieresis WindowsLatin1Encoding 128 32 getinterval astore pop}
{/WindowsLatin1Encoding StandardEncoding bdef} ifelse
/reencode {exch dup where {pop load} {pop StandardEncoding} ifelse
  exch dup 3 1 roll findfont dup length dict begin
  { 1 index /FID ne {def}{pop pop} ifelse } forall
  /Encoding exch def currentdict end definefont pop} bdef
/isroman {findfont /CharStrings get /Agrave known} bdef
/FMSR {3 1 roll 1 index dup isroman {reencode} {pop pop} ifelse
  exch FMS} bdef
/csm {1 dpi2point div -1 dpi2point div scale neg translate
 dup landscapeMode eq {pop -90 rotate}
  {rotateMode eq {90 rotate} if} ifelse} bdef
% line types: solid, dotted, dashed, dotdash
/SO { [] 0 setdash } bdef
/DO { [.5 dpi2point mul 4 dpi2point mul] 0 setdash } bdef
/DA { [6 dpi2point mul] 0 setdash } bdef
/DD { [.5 dpi2point mul 4 dpi2point mul 6 dpi2point mul 4
  dpi2point mul] 0 setdash } bdef
% macros for lines and objects
/L {lineto stroke} bdef
/MP {3 1 roll moveto 1 sub {rlineto} repeat} bdef
/AP {{rlineto} repeat} bdef
/PDlw -1 def
/W {/PDlw currentlinewidth def setlinewidth} def
/PP {closepath eofill} bdef
/DP {closepath stroke} bdef
/MR {4 -2 roll moveto dup  0 exch rlineto exch 0 rlineto
  neg 0 exch rlineto closepath} bdef
/FR {MR stroke} bdef
/PR {MR fill} bdef
/L1i {{currentfile picstr readhexstring pop} image} bdef
/tMatrix matrix def
/MakeOval {newpath tMatrix currentmatrix pop translate scale
0 0 1 0 360 arc tMatrix setmatrix} bdef
/FO {MakeOval stroke} bdef
/PO {MakeOval fill} bdef
/PD {currentlinewidth 2 div 0 360 arc fill
   PDlw -1 eq not {PDlw w /PDlw -1 def} if} def
/FA {newpath tMatrix currentmatrix pop translate scale
  0 0 1 5 -2 roll arc tMatrix setmatrix stroke} bdef
/PA {newpath tMatrix currentmatrix pop	translate 0 0 moveto scale
  0 0 1 5 -2 roll arc closepath tMatrix setmatrix fill} bdef
/FAn {newpath tMatrix currentmatrix pop translate scale
  0 0 1 5 -2 roll arcn tMatrix setmatrix stroke} bdef
/PAn {newpath tMatrix currentmatrix pop translate 0 0 moveto scale
  0 0 1 5 -2 roll arcn closepath tMatrix setmatrix fill} bdef
/vradius 0 def /hradius 0 def /lry 0 def
/lrx 0 def /uly 0 def /ulx 0 def /rad 0 def
/MRR {/vradius xdef /hradius xdef /lry xdef /lrx xdef /uly xdef
  /ulx xdef newpath tMatrix currentmatrix pop ulx hradius add uly
  vradius add translate hradius vradius scale 0 0 1 180 270 arc 
  tMatrix setmatrix lrx hradius sub uly vradius add translate
  hradius vradius scale 0 0 1 270 360 arc tMatrix setmatrix
  lrx hradius sub lry vradius sub translate hradius vradius scale
  0 0 1 0 90 arc tMatrix setmatrix ulx hradius add lry vradius sub
  translate hradius vradius scale 0 0 1 90 180 arc tMatrix setmatrix
  closepath} bdef
/FRR {MRR stroke } bdef
/PRR {MRR fill } bdef
/MlrRR {/lry xdef /lrx xdef /uly xdef /ulx xdef /rad lry uly sub 2 div def
  newpath tMatrix currentmatrix pop ulx rad add uly rad add translate
  rad rad scale 0 0 1 90 270 arc tMatrix setmatrix lrx rad sub lry rad
  sub translate rad rad scale 0 0 1 270 90 arc tMatrix setmatrix
  closepath} bdef
/FlrRR {MlrRR stroke } bdef
/PlrRR {MlrRR fill } bdef
/MtbRR {/lry xdef /lrx xdef /uly xdef /ulx xdef /rad lrx ulx sub 2 div def
  newpath tMatrix currentmatrix pop ulx rad add uly rad add translate
  rad rad scale 0 0 1 180 360 arc tMatrix setmatrix lrx rad sub lry rad
  sub translate rad rad scale 0 0 1 0 180 arc tMatrix setmatrix
  closepath} bdef
/FtbRR {MtbRR stroke } bdef
/PtbRR {MtbRR fill } bdef
/stri 6 array def /dtri 6 array def
/smat 6 array def /dmat 6 array def
/tmat1 6 array def /tmat2 6 array def /dif 3 array def
/asub {/ind2 exch def /ind1 exch def dup dup
  ind1 get exch ind2 get sub exch } bdef
/tri_to_matrix {
  2 0 asub 3 1 asub 4 0 asub 5 1 asub
  dup 0 get exch 1 get 7 -1 roll astore } bdef
/compute_transform {
  dmat dtri tri_to_matrix tmat1 invertmatrix 
  smat stri tri_to_matrix tmat2 concatmatrix } bdef
/ds {stri astore pop} bdef
/dt {dtri astore pop} bdef
/db {2 copy /cols xdef /rows xdef mul dup 3 mul string
  currentfile 
  3 index 0 eq {/ASCIIHexDecode filter}
  {/ASCII85Decode filter 3 index 2 eq {/RunLengthDecode filter} if }
  ifelse exch readstring pop
  dup 0 3 index getinterval /rbmap xdef
  dup 2 index dup getinterval /gbmap xdef
  1 index dup 2 mul exch getinterval /bbmap xdef pop pop}bdef
/it {gs np dtri aload pop moveto lineto lineto cp c
  cols rows 8 compute_transform 
  rbmap gbmap bbmap true 3 colorimage gr}bdef
/il {newpath moveto lineto stroke}bdef
currentdict end def
%%EndProlog

%%BeginSetup
MathWorks begin

0 cap

end
%%EndSetup

%%Page: 1 1
%%BeginPageSetup
%%PageBoundingBox:    26   177   584   614
MathWorks begin
bpage
%%EndPageSetup

%%BeginObject: obj1
bplot

/dpi2point 12 def
portraitMode 0312 7368 csm

    0     0  6696  5238 rc
88 dict begin %Colortable dictionary
/c0 { 0.000000 0.000000 0.000000 sr} bdef
/c1 { 1.000000 1.000000 1.000000 sr} bdef
/c2 { 0.900000 0.000000 0.000000 sr} bdef
/c3 { 0.000000 0.820000 0.000000 sr} bdef
/c4 { 0.000000 0.000000 0.800000 sr} bdef
/c5 { 0.910000 0.820000 0.320000 sr} bdef
/c6 { 1.000000 0.260000 0.820000 sr} bdef
/c7 { 0.000000 0.820000 0.820000 sr} bdef
c0
1 j
1 sg
   0    0 6697 5239 rf
6 w
0 4269 5190 0 0 -4269 445 4662 4 MP
PP
-5190 0 0 4269 5190 0 0 -4269 445 4662 5 MP stroke
4 w
DO
0 sg
 769 4662 mt  769  393 L
 769  393 mt  769  393 L
1418 4662 mt 1418  393 L
1418  393 mt 1418  393 L
2066 4662 mt 2066  393 L
2066  393 mt 2066  393 L
2715 4662 mt 2715  393 L
2715  393 mt 2715  393 L
3364 4662 mt 3364  393 L
3364  393 mt 3364  393 L
4013 4662 mt 4013  393 L
4013  393 mt 4013  393 L
4661 4662 mt 4661  393 L
4661  393 mt 4661  393 L
5310 4662 mt 5310  393 L
5310  393 mt 5310  393 L
 445 4662 mt 5635 4662 L
5635 4662 mt 5635 4662 L
 445 3239 mt 5635 3239 L
5635 3239 mt 5635 3239 L
 445 1816 mt 5635 1816 L
5635 1816 mt 5635 1816 L
 445  393 mt 5635  393 L
5635  393 mt 5635  393 L
SO
6 w
 445  393 mt 5635  393 L
 445 4662 mt 5635 4662 L
5635 4662 mt 5635  393 L
 445 4662 mt  445  393 L
 445 4662 mt 5635 4662 L
 445 4662 mt  445  393 L
 769 4662 mt  769 4610 L
 769  393 mt  769  444 L
%%IncludeResource: font Helvetica
/Helvetica /WindowsLatin1Encoding 192 FMSR

 716 4874 mt 
(1) s
1418 4662 mt 1418 4610 L
1418  393 mt 1418  444 L
1365 4874 mt 
(2) s
2066 4662 mt 2066 4610 L
2066  393 mt 2066  444 L
2013 4874 mt 
(3) s
2715 4662 mt 2715 4610 L
2715  393 mt 2715  444 L
2662 4874 mt 
(4) s
3364 4662 mt 3364 4610 L
3364  393 mt 3364  444 L
3311 4874 mt 
(5) s
4013 4662 mt 4013 4610 L
4013  393 mt 4013  444 L
3960 4874 mt 
(6) s
4661 4662 mt 4661 4610 L
4661  393 mt 4661  444 L
4608 4874 mt 
(7) s
5310 4662 mt 5310 4610 L
5310  393 mt 5310  444 L
5257 4874 mt 
(8) s
 445 4662 mt  496 4662 L
5635 4662 mt 5583 4662 L
 197 4733 mt 
(60) s
 445 3239 mt  496 3239 L
5635 3239 mt 5583 3239 L
 197 3310 mt 
(62) s
 445 1816 mt  496 1816 L
5635 1816 mt 5583 1816 L
 197 1887 mt 
(64) s
 445  393 mt  496  393 L
5635  393 mt 5583  393 L
 197  464 mt 
(66) s
 445  393 mt 5635  393 L
 445 4662 mt 5635 4662 L
5635 4662 mt 5635  393 L
 445 4662 mt  445  393 L
gs 445 393 5191 4270 rc
24 w
/c8 { 0.000000 0.447059 0.741176 sr} bdef
c8
1946 2818 649 576 649 179 648 -203 649 -1591 769 2662 6 MP stroke
gr

24 w
c8
  42   42  769 2662 PO
  42   42 1418 1071 PO
  42   42 2066  868 PO
  42   42 2715 1047 PO
  42   42 3364 1623 PO
  42   42 5310 4441 PO
  42   42  769 2662 FO
  42   42 1418 1071 FO
  42   42 2066  868 FO
  42   42 2715 1047 FO
  42   42 3364 1623 FO
  42   42 5310 4441 FO
gs 445 393 5191 4270 rc
gr

0 sg
 202 2932 mt  -90 rotate
(Accuracy) s
90 rotate
%%IncludeResource: font Helvetica
/Helvetica /WindowsLatin1Encoding 120 FMSR

 428 4705 mt 
( ) s
5619  435 mt 
( ) s
gs 445 393 5191 4270 rc
c8
0 755 769 2285 2 MP stroke
91 0 723 2285 2 MP stroke
91 0 723 3040 2 MP stroke
0 254 1418 944 2 MP stroke
91 0 1372 944 2 MP stroke
91 0 1372 1198 2 MP stroke
0 324 2066 706 2 MP stroke
91 0 2021 706 2 MP stroke
91 0 2021 1030 2 MP stroke
0 550 2715 772 2 MP stroke
91 0 2670 772 2 MP stroke
91 0 2670 1322 2 MP stroke
0 317 3364 1465 2 MP stroke
91 0 3318 1465 2 MP stroke
91 0 3318 1782 2 MP stroke
0 244 5310 4319 2 MP stroke
91 0 5265 4319 2 MP stroke
91 0 5265 4563 2 MP stroke
1946 2818 649 576 649 179 648 -203 649 -1591 769 2662 6 MP stroke
DD
18 w
/c9 { 1.000000 0.000000 0.000000 sr} bdef
c9
0 -4270 3364 4663 2 MP stroke
SO
6 w
gr

6 w
c9
4 w
DO
SO
6 w
0 sg
 445 4662 mt 5635 4662 L
5635 4662 mt 5635  393 L
 769 4662 mt  769 4610 L
%%IncludeResource: font Helvetica
/Helvetica /WindowsLatin1Encoding 192 FMSR

 716 4874 mt 
(1) s
1418 4662 mt 1418 4610 L
1365 4874 mt 
(2) s
2066 4662 mt 2066 4610 L
2013 4874 mt 
(3) s
2715 4662 mt 2715 4610 L
2662 4874 mt 
(4) s
3364 4662 mt 3364 4610 L
3311 4874 mt 
(5) s
4013 4662 mt 4013 4610 L
3960 4874 mt 
(6) s
4661 4662 mt 4661 4610 L
4608 4874 mt 
(7) s
5310 4662 mt 5310 4610 L
5257 4874 mt 
(8) s
5635 4662 mt 5583 4662 L
5669 4733 mt 
(0) s
5635 3808 mt 5583 3808 L
5669 3879 mt 
(100) s
5635 2954 mt 5583 2954 L
5669 3025 mt 
(150) s
5635 2100 mt 5583 2100 L
5669 2171 mt 
(175) s
5635 1246 mt 5583 1246 L
5669 1317 mt 
(187.5) s
5635  393 mt 5583  393 L
5669  464 mt 
(193.75) s
gs 445 393 5191 4270 rc
24 w
/c10 { 1.000000 0.600000 0.784314 sr} bdef
c10
1946 717 649 -853 649 -649 648 -922 649 -1059 769 4115 6 MP stroke
gr

24 w
c10
0 j
0 -66 -66 0 0 66 66 0 736 4082 5 MP
gs
PP
gr
DP
0 -66 -66 0 0 66 66 0 1385 3023 5 MP
gs
PP
gr
DP
0 -66 -66 0 0 66 66 0 2033 2101 5 MP
gs
PP
gr
DP
0 -66 -66 0 0 66 66 0 2682 1452 5 MP
gs
PP
gr
DP
0 -66 -66 0 0 66 66 0 3331 599 5 MP
gs
PP
gr
DP
0 -66 -66 0 0 66 66 0 5277 1316 5 MP
gs
PP
gr
DP
gs 445 393 5191 4270 rc
gr

0 sg
2986 5070 mt 
(L) s
6623 3206 mt  -90 rotate
(Width \(Sparsity\)) s
90 rotate
gs 445 393 5191 4270 rc
/c11 { 0.466667 0.674510 0.188235 sr} bdef
c11
1946 -12 649 15 649 27 648 106 649 3437 769 898 6 MP stroke
gr

c11
-48 83 -48 -83 96 0 721 926 4 MP
gs
PP
gr
DP
-48 83 -48 -83 96 0 1370 4363 4 MP
gs
PP
gr
DP
-48 83 -48 -83 96 0 2018 4469 4 MP
gs
PP
gr
DP
-48 83 -48 -83 96 0 2667 4496 4 MP
gs
PP
gr
DP
-48 83 -48 -83 96 0 3316 4511 4 MP
gs
PP
gr
DP
-48 83 -48 -83 96 0 5262 4499 4 MP
gs
PP
gr
DP
gs 445 393 5191 4270 rc
6 w
gr

6 w
1 sg
0 729 1293 0 0 -729 4283 1182 4 MP
PP
-1293 0 0 729 1293 0 0 -729 4283 1182 5 MP stroke
4 w
DO
SO
6 w
0 sg
4283  453 mt 5576  453 L
4283 1182 mt 5576 1182 L
5576 1182 mt 5576  453 L
4283 1182 mt 4283  453 L
4283 1182 mt 5576 1182 L
4283 1182 mt 4283  453 L
4283  453 mt 5576  453 L
4283 1182 mt 5576 1182 L
5576 1182 mt 5576  453 L
4283 1182 mt 4283  453 L
4741  656 mt 
(Accuracy) s
gs 4283 453 1294 730 rc
24 w
c8
352 0 4353 587 2 MP stroke
gs 4419 477 221 221 rc
  42   42 4529  587 PO
  42   42 4529  587 FO
gr

gr

24 w
c8
0 sg
4741  886 mt 
(Width) s
gs 4283 453 1294 730 rc
c10
352 0 4353 817 2 MP stroke
gs 4419 707 221 221 rc
0 -66 -66 0 0 66 66 0 4496 784 5 MP
gs
PP
gr
DP
gr

gr

c10
0 sg
4741 1116 mt 
(Sparsity) s
gs 4283 453 1294 730 rc
c11
352 0 4353 1047 2 MP stroke
gs 4419 937 221 221 rc
-48 83 -48 -83 96 0 4481 1075 4 MP
gs
PP
gr
DP
gr

6 w
gr

6 w
c11
0 sg
%%IncludeResource: font Helvetica
/Helvetica /WindowsLatin1Encoding 144 FMSR

5985 2165 mt 
(\(0.117\)) s
5985 3035 mt 
(\(0.100\)) s
5993 3870 mt 
(\(0.067\)) s
6242  462 mt 
(\(0.129\)) s
6147 1310 mt 
(\(0.125\)) s

end %%Color Dict

eplot
%%EndObject

epage
end

showpage

%%Trailer
%%EOF
