%!PS-Adobe-3.0 EPSF-3.0
%%Creator: MATLAB, The MathWorks, Inc. Version 8.3.0.532 (R2014a). Operating System: Microsoft Windows Server 2012 R2 Datacenter.
%%Title: \\minint-0ufabgc\d$\Project\CVPR18\diffL_bk.eps
%%CreationDate: 11/12/2017  21:13:42
%%DocumentNeededFonts: Helvetica
%%DocumentProcessColors: Cyan Magenta Yellow Black
%%LanguageLevel: 2
%%Pages: 1
%%BoundingBox: 28 188 586 587
%%EndComments

%%BeginProlog
% MathWorks dictionary
/MathWorks 160 dict begin
% definition operators
/bdef {bind def} bind def
/ldef {load def} bind def
/xdef {exch def} bdef
/xstore {exch store} bdef
% operator abbreviations
/c  /clip ldef
/cc /concat ldef
/cp /closepath ldef
/gr /grestore ldef
/gs /gsave ldef
/mt /moveto ldef
/np /newpath ldef
/cm /currentmatrix ldef
/sm /setmatrix ldef
/rm /rmoveto ldef
/rl /rlineto ldef
/s {show newpath} bdef
/sc {setcmykcolor} bdef
/sr /setrgbcolor ldef
/sg /setgray ldef
/w /setlinewidth ldef
/j /setlinejoin ldef
/cap /setlinecap ldef
/rc {rectclip} bdef
/rf {rectfill} bdef
% page state control
/pgsv () def
/bpage {/pgsv save def} bdef
/epage {pgsv restore} bdef
/bplot /gsave ldef
/eplot {stroke grestore} bdef
% orientation switch
/portraitMode 0 def /landscapeMode 1 def /rotateMode 2 def
% coordinate system mappings
/dpi2point 0 def
% font control
/FontSize 0 def
/FMS {/FontSize xstore findfont [FontSize 0 0 FontSize neg 0 0]
  makefont setfont} bdef
/ISOLatin1Encoding where {pop /WindowsLatin1Encoding 256 array bdef
ISOLatin1Encoding WindowsLatin1Encoding copy pop
/.notdef/.notdef/quotesinglbase/florin/quotedblbase/ellipsis/dagger
/daggerdbl/circumflex/perthousand/Scaron/guilsinglleft/OE/.notdef/.notdef
/.notdef/.notdef/quoteleft/quoteright/quotedblleft/quotedblright/bullet
/endash/emdash/tilde/trademark/scaron/guilsinglright/oe/.notdef/.notdef
/Ydieresis WindowsLatin1Encoding 128 32 getinterval astore pop}
{/WindowsLatin1Encoding StandardEncoding bdef} ifelse
/reencode {exch dup where {pop load} {pop StandardEncoding} ifelse
  exch dup 3 1 roll findfont dup length dict begin
  { 1 index /FID ne {def}{pop pop} ifelse } forall
  /Encoding exch def currentdict end definefont pop} bdef
/isroman {findfont /CharStrings get /Agrave known} bdef
/FMSR {3 1 roll 1 index dup isroman {reencode} {pop pop} ifelse
  exch FMS} bdef
/csm {1 dpi2point div -1 dpi2point div scale neg translate
 dup landscapeMode eq {pop -90 rotate}
  {rotateMode eq {90 rotate} if} ifelse} bdef
% line types: solid, dotted, dashed, dotdash
/SO { [] 0 setdash } bdef
/DO { [.5 dpi2point mul 4 dpi2point mul] 0 setdash } bdef
/DA { [6 dpi2point mul] 0 setdash } bdef
/DD { [.5 dpi2point mul 4 dpi2point mul 6 dpi2point mul 4
  dpi2point mul] 0 setdash } bdef
% macros for lines and objects
/L {lineto stroke} bdef
/MP {3 1 roll moveto 1 sub {rlineto} repeat} bdef
/AP {{rlineto} repeat} bdef
/PDlw -1 def
/W {/PDlw currentlinewidth def setlinewidth} def
/PP {closepath eofill} bdef
/DP {closepath stroke} bdef
/MR {4 -2 roll moveto dup  0 exch rlineto exch 0 rlineto
  neg 0 exch rlineto closepath} bdef
/FR {MR stroke} bdef
/PR {MR fill} bdef
/L1i {{currentfile picstr readhexstring pop} image} bdef
/tMatrix matrix def
/MakeOval {newpath tMatrix currentmatrix pop translate scale
0 0 1 0 360 arc tMatrix setmatrix} bdef
/FO {MakeOval stroke} bdef
/PO {MakeOval fill} bdef
/PD {currentlinewidth 2 div 0 360 arc fill
   PDlw -1 eq not {PDlw w /PDlw -1 def} if} def
/FA {newpath tMatrix currentmatrix pop translate scale
  0 0 1 5 -2 roll arc tMatrix setmatrix stroke} bdef
/PA {newpath tMatrix currentmatrix pop	translate 0 0 moveto scale
  0 0 1 5 -2 roll arc closepath tMatrix setmatrix fill} bdef
/FAn {newpath tMatrix currentmatrix pop translate scale
  0 0 1 5 -2 roll arcn tMatrix setmatrix stroke} bdef
/PAn {newpath tMatrix currentmatrix pop translate 0 0 moveto scale
  0 0 1 5 -2 roll arcn closepath tMatrix setmatrix fill} bdef
/vradius 0 def /hradius 0 def /lry 0 def
/lrx 0 def /uly 0 def /ulx 0 def /rad 0 def
/MRR {/vradius xdef /hradius xdef /lry xdef /lrx xdef /uly xdef
  /ulx xdef newpath tMatrix currentmatrix pop ulx hradius add uly
  vradius add translate hradius vradius scale 0 0 1 180 270 arc 
  tMatrix setmatrix lrx hradius sub uly vradius add translate
  hradius vradius scale 0 0 1 270 360 arc tMatrix setmatrix
  lrx hradius sub lry vradius sub translate hradius vradius scale
  0 0 1 0 90 arc tMatrix setmatrix ulx hradius add lry vradius sub
  translate hradius vradius scale 0 0 1 90 180 arc tMatrix setmatrix
  closepath} bdef
/FRR {MRR stroke } bdef
/PRR {MRR fill } bdef
/MlrRR {/lry xdef /lrx xdef /uly xdef /ulx xdef /rad lry uly sub 2 div def
  newpath tMatrix currentmatrix pop ulx rad add uly rad add translate
  rad rad scale 0 0 1 90 270 arc tMatrix setmatrix lrx rad sub lry rad
  sub translate rad rad scale 0 0 1 270 90 arc tMatrix setmatrix
  closepath} bdef
/FlrRR {MlrRR stroke } bdef
/PlrRR {MlrRR fill } bdef
/MtbRR {/lry xdef /lrx xdef /uly xdef /ulx xdef /rad lrx ulx sub 2 div def
  newpath tMatrix currentmatrix pop ulx rad add uly rad add translate
  rad rad scale 0 0 1 180 360 arc tMatrix setmatrix lrx rad sub lry rad
  sub translate rad rad scale 0 0 1 0 180 arc tMatrix setmatrix
  closepath} bdef
/FtbRR {MtbRR stroke } bdef
/PtbRR {MtbRR fill } bdef
/stri 6 array def /dtri 6 array def
/smat 6 array def /dmat 6 array def
/tmat1 6 array def /tmat2 6 array def /dif 3 array def
/asub {/ind2 exch def /ind1 exch def dup dup
  ind1 get exch ind2 get sub exch } bdef
/tri_to_matrix {
  2 0 asub 3 1 asub 4 0 asub 5 1 asub
  dup 0 get exch 1 get 7 -1 roll astore } bdef
/compute_transform {
  dmat dtri tri_to_matrix tmat1 invertmatrix 
  smat stri tri_to_matrix tmat2 concatmatrix } bdef
/ds {stri astore pop} bdef
/dt {dtri astore pop} bdef
/db {2 copy /cols xdef /rows xdef mul dup 3 mul string
  currentfile 
  3 index 0 eq {/ASCIIHexDecode filter}
  {/ASCII85Decode filter 3 index 2 eq {/RunLengthDecode filter} if }
  ifelse exch readstring pop
  dup 0 3 index getinterval /rbmap xdef
  dup 2 index dup getinterval /gbmap xdef
  1 index dup 2 mul exch getinterval /bbmap xdef pop pop}bdef
/it {gs np dtri aload pop moveto lineto lineto cp c
  cols rows 8 compute_transform 
  rbmap gbmap bbmap true 3 colorimage gr}bdef
/il {newpath moveto lineto stroke}bdef
currentdict end def
%%EndProlog

%%BeginSetup
MathWorks begin

0 cap

end
%%EndSetup

%%Page: 1 1
%%BeginPageSetup
%%PageBoundingBox:    26   177   584   614
MathWorks begin
bpage
%%EndPageSetup

%%BeginObject: obj1
bplot

/dpi2point 12 def
portraitMode 0312 7368 csm

    0     0  6696  5238 rc
86 dict begin %Colortable dictionary
/c0 { 0.000000 0.000000 0.000000 sr} bdef
/c1 { 1.000000 1.000000 1.000000 sr} bdef
/c2 { 0.900000 0.000000 0.000000 sr} bdef
/c3 { 0.000000 0.820000 0.000000 sr} bdef
/c4 { 0.000000 0.000000 0.800000 sr} bdef
/c5 { 0.910000 0.820000 0.320000 sr} bdef
/c6 { 1.000000 0.260000 0.820000 sr} bdef
/c7 { 0.000000 0.820000 0.820000 sr} bdef
c0
1 j
1 sg
   0    0 6697 5239 rf
6 w
0 4269 5189 0 0 -4269 531 4692 4 MP
PP
-5189 0 0 4269 5189 0 0 -4269 531 4692 5 MP stroke
4 w
DO
0 sg
 531 4692 mt 5720 4692 L
5720 4692 mt 5720 4692 L
 531 3980 mt 5720 3980 L
5720 3980 mt 5720 3980 L
 531 3269 mt 5720 3269 L
5720 3269 mt 5720 3269 L
 531 2557 mt 5720 2557 L
5720 2557 mt 5720 2557 L
 531 1846 mt 5720 1846 L
5720 1846 mt 5720 1846 L
 531 1134 mt 5720 1134 L
5720 1134 mt 5720 1134 L
 531  423 mt 5720  423 L
5720  423 mt 5720  423 L
SO
6 w
 531  423 mt 5720  423 L
 531 4692 mt 5720 4692 L
5720 4692 mt 5720  423 L
 531 4692 mt  531  423 L
 531 4692 mt 5720 4692 L
 531 4692 mt  531  423 L
 855 4692 mt  855 4640 L
 855  423 mt  855  474 L
%%IncludeResource: font Helvetica
/Helvetica /WindowsLatin1Encoding 168 FMSR

 809 4882 mt 
(1) s
1503 4692 mt 1503 4640 L
1503  423 mt 1503  474 L
1457 4882 mt 
(2) s
2152 4692 mt 2152 4640 L
2152  423 mt 2152  474 L
2106 4882 mt 
(3) s
2801 4692 mt 2801 4640 L
2801  423 mt 2801  474 L
2755 4882 mt 
(4) s
3449 4692 mt 3449 4640 L
3449  423 mt 3449  474 L
3403 4882 mt 
(5) s
4098 4692 mt 4098 4640 L
4098  423 mt 4098  474 L
4052 4882 mt 
(6) s
4747 4692 mt 4747 4640 L
4747  423 mt 4747  474 L
4701 4882 mt 
(7) s
5395 4692 mt 5395 4640 L
5395  423 mt 5395  474 L
5349 4882 mt 
(8) s
 531 4692 mt  582 4692 L
5720 4692 mt 5668 4692 L
 310 4754 mt 
(60) s
 531 3980 mt  582 3980 L
5720 3980 mt 5668 3980 L
 310 4042 mt 
(61) s
 531 3269 mt  582 3269 L
5720 3269 mt 5668 3269 L
 310 3331 mt 
(62) s
 531 2557 mt  582 2557 L
5720 2557 mt 5668 2557 L
 310 2619 mt 
(63) s
 531 1846 mt  582 1846 L
5720 1846 mt 5668 1846 L
 310 1908 mt 
(64) s
 531 1134 mt  582 1134 L
5720 1134 mt 5668 1134 L
 310 1196 mt 
(65) s
 531  423 mt  582  423 L
5720  423 mt 5668  423 L
 310  485 mt 
(66) s
 531  423 mt 5720  423 L
 531 4692 mt 5720 4692 L
5720 4692 mt 5720  423 L
 531 4692 mt  531  423 L
gs 531 423 5190 4270 rc
36 w
/c8 { 0.000000 0.000000 1.000000 sr} bdef
c8
1946 2818 648 576 649 179 649 -203 648 -1591 855 2692 6 MP stroke
gr

36 w
c8
  42   42  855 2692 PO
  42   42 1503 1101 PO
  42   42 2152  898 PO
  42   42 2801 1077 PO
  42   42 3449 1653 PO
  42   42 5395 4471 PO
  42   42  855 2692 FO
  42   42 1503 1101 FO
  42   42 2152  898 FO
  42   42 2801 1077 FO
  42   42 3449 1653 FO
  42   42 5395 4471 FO
gs 531 423 5190 4270 rc
gr

0 sg
%%IncludeResource: font Helvetica
/Helvetica /WindowsLatin1Encoding 192 FMSR

 212 2952 mt  -90 rotate
(Accuracy) s
90 rotate
6 w
4 w
DO
5720 4692 mt 5720 4692 L
5720 4692 mt  531 4692 L
5720 4158 mt 5720 4158 L
5720 4158 mt  531 4158 L
5720 3269 mt 5720 3269 L
5720 3269 mt  531 3269 L
5720 2379 mt 5720 2379 L
5720 2379 mt  531 2379 L
5720 1490 mt 5720 1490 L
5720 1490 mt  531 1490 L
5720  600 mt 5720  600 L
5720  600 mt  531  600 L
5720  423 mt 5720  423 L
5720  423 mt  531  423 L
SO
6 w
 531 4692 mt 5720 4692 L
5720 4692 mt 5720  423 L
 855 4692 mt  855 4640 L
%%IncludeResource: font Helvetica
/Helvetica /WindowsLatin1Encoding 168 FMSR

 809 4882 mt 
(1) s
1503 4692 mt 1503 4640 L
1457 4882 mt 
(2) s
2152 4692 mt 2152 4640 L
2106 4882 mt 
(3) s
2801 4692 mt 2801 4640 L
2755 4882 mt 
(4) s
3449 4692 mt 3449 4640 L
3403 4882 mt 
(5) s
4098 4692 mt 4098 4640 L
4052 4882 mt 
(6) s
4747 4692 mt 4747 4640 L
4701 4882 mt 
(7) s
5395 4692 mt 5395 4640 L
5349 4882 mt 
(8) s
5720 4692 mt 5668 4692 L
5754 4754 mt 
(20) s
5720 4158 mt 5668 4158 L
5754 4220 mt 
( 50 ) s
5720 3269 mt 5668 3269 L
5754 3331 mt 
(100) s
5720 2379 mt 5668 2379 L
5754 2441 mt 
(150) s
5720 1490 mt 5668 1490 L
5754 1552 mt 
(200) s
5720  600 mt 5668  600 L
5754  662 mt 
(250) s
5720  423 mt 5668  423 L
5754  485 mt 
(260) s
gs 531 423 5190 4270 rc
36 w
/c9 { 0.000000 0.498039 0.000000 sr} bdef
c9
1946 107 648 -142 649 -178 649 -534 648 -1423 855 3909 6 MP stroke
gr

36 w
c9
0 j
-48 83 -48 -83 96 0 807 3937 4 MP
gs
PP
gr
DP
-48 83 -48 -83 96 0 1455 2514 4 MP
gs
PP
gr
DP
-48 83 -48 -83 96 0 2104 1980 4 MP
gs
PP
gr
DP
-48 83 -48 -83 96 0 2753 1802 4 MP
gs
PP
gr
DP
-48 83 -48 -83 96 0 3401 1660 4 MP
gs
PP
gr
DP
-48 83 -48 -83 96 0 5347 1767 4 MP
gs
PP
gr
DP
gs 531 423 5190 4270 rc
gr

0 sg
%%IncludeResource: font Helvetica
/Helvetica /WindowsLatin1Encoding 192 FMSR

3071 5078 mt 
(L) s
6686 3218 mt  -90 rotate
(Width \\) s
90 rotate
gs 531 423 5190 4270 rc
/c10 { 1.000000 0.000000 0.000000 sr} bdef
c10
1946 -36 648 43 649 75 649 295 648 3600 855 540 6 MP stroke
gr

c10
0 -66 -66 0 0 66 66 0 822 507 5 MP
gs
PP
gr
DP
0 -66 -66 0 0 66 66 0 1470 4107 5 MP
gs
PP
gr
DP
0 -66 -66 0 0 66 66 0 2119 4402 5 MP
gs
PP
gr
DP
0 -66 -66 0 0 66 66 0 2768 4477 5 MP
gs
PP
gr
DP
0 -66 -66 0 0 66 66 0 3416 4520 5 MP
gs
PP
gr
DP
0 -66 -66 0 0 66 66 0 5362 4484 5 MP
gs
PP
gr
DP
gs 531 423 5190 4270 rc
gr

0 sg
%%IncludeResource: font Helvetica
/Helvetica /WindowsLatin1Encoding 120 FMSR

 514 4735 mt 
( ) s
5704  465 mt 
( ) s
%%IncludeResource: font Helvetica
/Helvetica /WindowsLatin1Encoding 192 FMSR

6694 2570 mt  -90 rotate
(Sparsity) s
90 rotate
6 w
1 sg
0 645 1195 0 0 -645 4466 1128 4 MP
PP
-1195 0 0 645 1195 0 0 -645 4466 1128 5 MP stroke
4 w
DO
SO
6 w
0 sg
4466  483 mt 5661  483 L
4466 1128 mt 5661 1128 L
5661 1128 mt 5661  483 L
4466 1128 mt 4466  483 L
4466 1128 mt 5661 1128 L
4466 1128 mt 4466  483 L
4466  483 mt 5661  483 L
4466 1128 mt 5661 1128 L
5661 1128 mt 5661  483 L
4466 1128 mt 4466  483 L
%%IncludeResource: font Helvetica
/Helvetica /WindowsLatin1Encoding 168 FMSR

4923  663 mt 
(Width) s
gs 4466 483 1196 646 rc
36 w
c9
351 0 4536 603 2 MP stroke
gr

36 w
c9
gs 4590 481 245 245 rc
-48 83 -48 -83 96 0 4664 631 4 MP
gs
PP
gr
DP
gr

gs 4466 483 1196 646 rc
gr

0 sg
4923  866 mt 
(Sparsity) s
gs 4466 483 1196 646 rc
c10
351 0 4536 805 2 MP stroke
gs 4590 683 245 245 rc
0 -66 -66 0 0 66 66 0 4679 772 5 MP
gs
PP
gr
DP
gr

gr

c10
0 sg
4923 1069 mt 
(Accuracy) s
gs 4466 483 1196 646 rc
c8
351 0 4536 1007 2 MP stroke
gr

c8
gs 4590 885 245 245 rc
  42   42 4712 1007 PO
  42   42 4712 1007 FO
gr

gs 4466 483 1196 646 rc
6 w
gr

6 w
0 sg
%%IncludeResource: font Helvetica
/Helvetica /WindowsLatin1Encoding 144 FMSR

6069 2443 mt 
(\(0.075\)) s
6019 4227 mt 
(\(0.025\)) s
5970 4756 mt 
(\(0.01\)) s
6071 3331 mt 
(\(0.05\)) s
6075 1550 mt 
(\(0.1\)) s
6080  672 mt 
(\(0.125\)) s

end %%Color Dict

eplot
%%EndObject

epage
end

showpage

%%Trailer
%%EOF
