\relax 
\providecommand\hyper@newdestlabel[2]{}
\providecommand\HyperFirstAtBeginDocument{\AtBeginDocument}
\HyperFirstAtBeginDocument{\ifx\hyper@anchor\@undefined
\global\let\oldcontentsline\contentsline
\gdef\contentsline#1#2#3#4{\oldcontentsline{#1}{#2}{#3}}
\global\let\oldnewlabel\newlabel
\gdef\newlabel#1#2{\newlabelxx{#1}#2}
\gdef\newlabelxx#1#2#3#4#5#6{\oldnewlabel{#1}{{#2}{#3}}}
\AtEndDocument{\ifx\hyper@anchor\@undefined
\let\contentsline\oldcontentsline
\let\newlabel\oldnewlabel
\fi}
\fi}
\global\let\hyper@last\relax 
\gdef\HyperFirstAtBeginDocument#1{#1}
\providecommand\HyField@AuxAddToFields[1]{}
\providecommand\HyField@AuxAddToCoFields[2]{}
\citation{howard2017mobilenets}
\citation{ILSVRC15}
\citation{howard2017mobilenets}
\citation{howard2017mobilenets}
\citation{howard2017mobilenets}
\@writefile{toc}{\contentsline {section}{\numberline {1}\hskip -1em.\nobreakspace  {}Comparision with MobileNet on ImageNet.}{1}{section.1}}
\@writefile{brf}{\backcite{howard2017mobilenets}{{1}{1}{section.1}}}
\@writefile{brf}{\backcite{ILSVRC15}{{1}{1}{section.1}}}
\@writefile{brf}{\backcite{howard2017mobilenets}{{1}{1}{section.1}}}
\@writefile{lot}{\contentsline {table}{\numberline {1}{\ignorespaces Comparison between MobileNet and MobileNet-ISSC on ImageNet. The two networks, MobileNet-ISSC-0.5 and MobileNet-ISSC-1.0, are designed to be with a width that is twice of the MobileNet-0.25 and MobileNet-ISSC-0.5, respectively. Our models with less \#params and achieve comparable performance on ImageNet. }}{1}{table.1}}
\newlabel{tab:cmp-results}{{1}{1}{Comparison between MobileNet and MobileNet-ISSC on ImageNet. The two networks, MobileNet-ISSC-0.5 and MobileNet-ISSC-1.0, are designed to be with a width that is twice of the MobileNet-0.25 and MobileNet-ISSC-0.5, respectively. Our models with less \#params and achieve comparable performance on ImageNet}{table.1}{}}
\@writefile{toc}{\contentsline {section}{\numberline {2}\hskip -1em.\nobreakspace  {}ISSC for the case $C_{in}\not =C_{out}$ }{1}{section.2}}
\bibstyle{ieee}
\bibdata{egbib}
\bibcite{howard2017mobilenets}{1}
\bibcite{ILSVRC15}{2}
\@writefile{lot}{\contentsline {table}{\numberline {2}{\ignorespaces MobileNet-ISSC-0.5. This structure is the same as the structure of MobileNet described in \cite  {howard2017mobilenets}. Instead, we replace all the $1\times 1$ convolution layers with an ISSC blocks with two group convolutions. The width factor of this network is $\alpha =0.5$. The ISSC blocks is denoted as $[L,c,(1\times 1, K)]$,i.e., the ($L$) group $1\times 1$ convolutions with each branch containing $K$ channels and width being $c$. Here $L=2$ for all ISSC.}}{2}{table.2}}
\@writefile{brf}{\backcite{howard2017mobilenets}{{2}{2}{table.2}}}
\newlabel{tab:ISSC-0.5}{{2}{2}{MobileNet-ISSC-0.5. This structure is the same as the structure of MobileNet described in \cite {howard2017mobilenets}. Instead, we replace all the $1\times 1$ convolution layers with an ISSC blocks with two group convolutions. The width factor of this network is $\alpha =0.5$. The ISSC blocks is denoted as $[L,c,(1\times 1, K)]$,i.e., the ($L$) group $1\times 1$ convolutions with each branch containing $K$ channels and width being $c$. Here $L=2$ for all ISSC}{table.2}{}}
\@writefile{lot}{\contentsline {table}{\numberline {3}{\ignorespaces MobileNet-ISSC-1.0. This network is similar to network in table \ref  {tab:ISSC-0.5}, with the width factor of this network being $\alpha =1.0$. The ISSC blocks is denoted as $[L,c,(1\times 1, K)]$, Here $L=2$ for all ISSC. }}{2}{table.3}}
\newlabel{tab:ISSC-1.0}{{3}{2}{MobileNet-ISSC-1.0. This network is similar to network in table \ref {tab:ISSC-0.5}, with the width factor of this network being $\alpha =1.0$. The ISSC blocks is denoted as $[L,c,(1\times 1, K)]$, Here $L=2$ for all ISSC}{table.3}{}}
