\relax 
\providecommand\hyper@newdestlabel[2]{}
\providecommand\HyperFirstAtBeginDocument{\AtBeginDocument}
\HyperFirstAtBeginDocument{\ifx\hyper@anchor\@undefined
\global\let\oldcontentsline\contentsline
\gdef\contentsline#1#2#3#4{\oldcontentsline{#1}{#2}{#3}}
\global\let\oldnewlabel\newlabel
\gdef\newlabel#1#2{\newlabelxx{#1}#2}
\gdef\newlabelxx#1#2#3#4#5#6{\oldnewlabel{#1}{{#2}{#3}}}
\AtEndDocument{\ifx\hyper@anchor\@undefined
\let\contentsline\oldcontentsline
\let\newlabel\oldnewlabel
\fi}
\fi}
\global\let\hyper@last\relax 
\gdef\HyperFirstAtBeginDocument#1{#1}
\providecommand\HyField@AuxAddToFields[1]{}
\providecommand\HyField@AuxAddToCoFields[2]{}
\citation{HeZRS16}
\citation{ZhangQXW17}
\citation{IoannouRCC16}
\citation{Chollet16a}
\citation{ZhangQXW17}
\citation{IoannouRCC16}
\citation{Chollet16a}
\providecommand \oddpage@label [2]{}
\@writefile{toc}{\contentsline {section}{\numberline {1}\hskip -1em.\nobreakspace  {}Introduction}{1}{section.1}}
\@writefile{lof}{\contentsline {figure}{\numberline {1}{\ignorespaces The structure of ISSC. \relax }}{1}{figure.caption.1}}
\providecommand*\caption@xref[2]{\@setref\relax\@undefined{#1}}
\newlabel{fig:teaser}{{1}{1}{The structure of ISSC. \relax }{figure.caption.1}{}}
\citation{zhou2017incremental}
\citation{HanMD15}
\citation{courbariaux2016binarized}
\citation{rastegari2016xnor}
\citation{li2016ternary}
\citation{zhou2016dorefa}
\citation{zhu2016trained}
\citation{liu2015sparse}
\citation{park2016faster}
\citation{WenWWCL16}
\citation{mao2017exploring}
\citation{XieGDTH16}
\citation{ZhaoWLTZ16}
\citation{he2017channel}
\citation{wen2017coordinating}
\citation{LiKDSG16}
\citation{IoannouRSCC15}
\citation{JaderbergVZ14}
\citation{MamaletG12}
\citation{DentonZBLF14}
\citation{JaderbergVZ14}
\citation{DentonZBLF14}
\citation{KimPYCYS15}
\citation{JaderbergVZ14}
\citation{HeZRS16}
\citation{ZhangQXW17}
\citation{ZhangQXW17}
\citation{Chollet16a}
\citation{IoannouRCC16}
\citation{Chollet16a}
\citation{IoannouRCC16}
\citation{ZhangQXW17}
\citation{ZhangQXW17}
\@writefile{toc}{\contentsline {section}{\numberline {2}\hskip -1em.\nobreakspace  {}Related Work}{2}{section.2}}
\@writefile{toc}{\contentsline {section}{\numberline {3}\hskip -1em.\nobreakspace  {}Our Approach}{2}{section.3}}
\@writefile{toc}{\contentsline {subsection}{\numberline {3.1}\hskip -1em.\nobreakspace  {}A Review of IGC, Xception and Deep Roots}{2}{subsection.3.1}}
\newlabel{eqn:twosparsematrixproduct}{{2}{2}{\hskip -1em.~A Review of IGC, Xception and Deep Roots}{equation.3.2}{}}
\newlabel{eqn:groupconvolution}{{3}{2}{\hskip -1em.~A Review of IGC, Xception and Deep Roots}{equation.3.3}{}}
\citation{ZhangQXW17}
\@writefile{toc}{\contentsline {subsection}{\numberline {3.2}\hskip -1em.\nobreakspace  {}Interleaved Structured Sparse Convolutions}{3}{subsection.3.2}}
\newlabel{sec:ISSC}{{3.2}{3}{\hskip -1em.~Interleaved Structured Sparse Convolutions}{subsection.3.2}{}}
\newlabel{eqn:moresparsematrixproduct}{{5}{3}{\hskip -1em.~Interleaved Structured Sparse Convolutions}{equation.3.5}{}}
\newlabel{eqn:multiplicationproperty}{{6}{3}{\hskip -1em.~Interleaved Structured Sparse Convolutions}{equation.3.6}{}}
\citation{ZhangQXW17}
\citation{ZhangQXW17}
\citation{Alex2009}
\citation{TorralbaFF08}
\citation{HeZRS16}
\citation{HuangSLSW16}
\citation{LeeXGZT15}
\citation{HuangLW16a}
\citation{LarssonMS16a}
\citation{LinCY13}
\citation{RomeroBKCGB14}
\citation{SpringenbergDBR14}
\citation{SrivastavaGS15}
\newlabel{eqn:balancecondition}{{11}{4}{\hskip -1em.~Interleaved Structured Sparse Convolutions}{equation.3.11}{}}
\newlabel{eqn:optimalLforminimalC}{{14}{4}{\hskip -1em.~Interleaved Structured Sparse Convolutions}{equation.3.14}{}}
\@writefile{toc}{\contentsline {subsection}{\numberline {3.3}\hskip -1em.\nobreakspace  {}Discussions}{4}{subsection.3.3}}
\citation{Le2015TinyIV}
\citation{ILSVRC15}
\citation{ZhangQXW17}
\citation{ZhangQXW17}
\@writefile{toc}{\contentsline {section}{\numberline {4}\hskip -1em.\nobreakspace  {}Experiment}{5}{section.4}}
\@writefile{toc}{\contentsline {subsection}{\numberline {4.1}\hskip -1em.\nobreakspace  {}Datasets}{5}{subsection.4.1}}
\@writefile{toc}{\contentsline {subsection}{\numberline {4.2}\hskip -1em.\nobreakspace  {}Empirical Analysis}{5}{subsection.4.2}}
\@writefile{toc}{\contentsline {subsection}{\numberline {4.3}\hskip -1em.\nobreakspace  {}Comparison With Xception}{5}{subsection.4.3}}
\newlabel{sec:comparisonwithxception}{{4.3}{5}{\hskip -1em.~Comparison With Xception}{subsection.4.3}{}}
\citation{ZhangQXW17}
\@writefile{lof}{\contentsline {figure}{\numberline {2}{\ignorespaces \relax \fontsize  {9}{11}\selectfont  \abovedisplayskip 8.5\p@ plus3\p@ minus4\p@ \abovedisplayshortskip \z@ plus2\p@ \belowdisplayshortskip 4\p@ plus2\p@ minus2\p@ \def \leftmargin \leftmargini \topsep 4\p@ plus2\p@ minus2\p@ \parsep 2\p@ plus\p@ minus\p@ \itemsep \parsep {\leftmargin \leftmargini \topsep 4\p@ plus2\p@ minus2\p@ \parsep 2\p@ plus\p@ minus\p@ \itemsep \parsep }\belowdisplayskip \abovedisplayskip Illustrating how the number of channels ($K$) in each branch in group convolutions affects the performance on CIFAR-$100$ in our approach. The red bar corresponds to the case in which the complementary condition is the most satisfied. The best performances corresponding to the red bar or the bars immediately near to the red bar show that the complementary condition is reasonable for ISSC design. {\color  {red} width, sparsity...}\relax }}{6}{figure.caption.2}}
\newlabel{fig:effectofk}{{2}{6}{\small Illustrating how the number of channels ($K$) in each branch in group convolutions affects the performance on CIFAR-$100$ in our approach. The red bar corresponds to the case in which the complementary condition is the most satisfied. The best performances corresponding to the red bar or the bars immediately near to the red bar show that the complementary condition is reasonable for ISSC design. {\color {red} width, sparsity...}\relax }{figure.caption.2}{}}
\@writefile{lot}{\contentsline {table}{\numberline {1}{\ignorespaces Network structure. We use network structure with 3 stages, with each stage down-sampling to next stage and then doubling the width. Xception-W$c$ and ISSC-W$c$ are used for experiments varying the depth of networks, with depth as $3B+2$, while Xception*-W$c$ and ISSC*-W$c$ are used for experiments varying the width of networks, with the first convolution layer keeping fixed. $L$ and $K$ are the hyper-parameters of ISSC. For ISSC-W$64$, K for each stage are $\{S_1=8,S_2=16,S_3=32\}$, while for ISSC-W$80$, K for each stage are $\{S_1=10,S_2=16,S_3=20\}$. The $L^*$ for each stage of ISSC-W$c$ are determined by $L^*=\qopname  \relax o{log}_K(C)$. $3\times 3 \text  { CW}$ represent channel-wise convolution with spatial size $3\times 3$. \relax }}{6}{table.caption.5}}
\newlabel{tab:networkstructures}{{1}{6}{Network structure. We use network structure with 3 stages, with each stage down-sampling to next stage and then doubling the width. Xception-W$c$ and ISSC-W$c$ are used for experiments varying the depth of networks, with depth as $3B+2$, while Xception*-W$c$ and ISSC*-W$c$ are used for experiments varying the width of networks, with the first convolution layer keeping fixed. $L$ and $K$ are the hyper-parameters of ISSC. For ISSC-W$64$, K for each stage are $\{S_1=8,S_2=16,S_3=32\}$, while for ISSC-W$80$, K for each stage are $\{S_1=10,S_2=16,S_3=20\}$. The $L^*$ for each stage of ISSC-W$c$ are determined by $L^*=\log _K(C)$. $3\times 3 \text { CW}$ represent channel-wise convolution with spatial size $3\times 3$. \relax }{table.caption.5}{}}
\@writefile{toc}{\contentsline {subsection}{\numberline {4.4}\hskip -1em.\nobreakspace  {}Comparison With IGC.}{6}{subsection.4.4}}
\newlabel{sec:comparisonwithIGC}{{4.4}{6}{\hskip -1em.~Comparison With IGC}{subsection.4.4}{}}
\@writefile{lot}{\contentsline {table}{\numberline {2}{\ignorespaces Comparison of \#params and FLOPs of different network structures. IGC-W$48$ is the network IGC-$L24M2$ in\nobreakspace  {}\cite  {ZhangQXW17}. \#params is the number of parameters of all convolution layers (the number of classifiers are different among different dataset, so it's not included.).\relax }}{7}{table.caption.6}}
\newlabel{dw-hconv-params-flops}{{2}{7}{Comparison of \#params and FLOPs of different network structures. IGC-W$48$ is the network IGC-$L24M2$ in~\cite {ZhangQXW17}. \#params is the number of parameters of all convolution layers (the number of classifiers are different among different dataset, so it's not included.).\relax }{table.caption.6}{}}
\@writefile{lof}{\contentsline {figure}{\numberline {3}{\ignorespaces \relax \fontsize  {9}{11}\selectfont  \abovedisplayskip 8.5\p@ plus3\p@ minus4\p@ \abovedisplayshortskip \z@ plus2\p@ \belowdisplayshortskip 4\p@ plus2\p@ minus2\p@ \def \leftmargin \leftmargini \parsep 4\p@ plus2\p@ minus\p@ \topsep 8\p@ plus2\p@ minus4\p@ \itemsep 4\p@ plus2\p@ minus\p@ {\leftmargin \leftmargini \topsep 4\p@ plus2\p@ minus2\p@ \parsep 2\p@ plus\p@ minus\p@ \itemsep \parsep }\belowdisplayskip \abovedisplayskip Illustrating how the performance changes when different numbers of layers $L$ are used to form our ISSC block. The numbers of channels in each branch of group convolution are chosen to satisfy the balance condition. {\color  {red} The accuracy depends on both the width and the non-sparsity degree, and the maximum accuracy is achieved at some $L$, in which the width and the non-sparsity degree reach a balance.} \relax }}{7}{figure.caption.3}}
\newlabel{fig:effectofL}{{\caption@xref {fig:effectofL}{ on input line 860}}{7}{\hskip -1em.~Empirical Analysis}{figure.caption.3}{}}
\@writefile{lot}{\contentsline {table}{\numberline {3}{\ignorespaces Comparing Xception and our ISSC block, which is nested constructed by decomposing the $1\times 1$ convolution in Xception to two group convolutions.\relax }}{7}{table.caption.7}}
\newlabel{tab:comparisontoxception8layers}{{3}{7}{Comparing Xception and our ISSC block, which is nested constructed by decomposing the $1\times 1$ convolution in Xception to two group convolutions.\relax }{table.caption.7}{}}
\@writefile{lot}{\contentsline {table}{\numberline {4}{\ignorespaces Comparing IGC, one ISSC block (ISSC-X), which is nested constructed by decomposing the $1\times 1$ convolution in Xception to two group convolutions, and one ISSC block (ISSC-I), which is nested constructed by decomposing the $1\times 1$ group convolution in IGC to two group convolutions.\relax }}{7}{table.caption.8}}
\newlabel{tab:comparisontoIGC8layers}{{4}{7}{Comparing IGC, one ISSC block (ISSC-X), which is nested constructed by decomposing the $1\times 1$ convolution in Xception to two group convolutions, and one ISSC block (ISSC-I), which is nested constructed by decomposing the $1\times 1$ group convolution in IGC to two group convolutions.\relax }{table.caption.8}{}}
\@writefile{lot}{\contentsline {table}{\numberline {5}{\ignorespaces Comparison between our ISSC approach, regular convolutions, Xception over networks with various depths and identity mappings as skip connections.\relax }}{7}{table.caption.9}}
\newlabel{tab:comparisontoXceptionvariousdepth}{{5}{7}{Comparison between our ISSC approach, regular convolutions, Xception over networks with various depths and identity mappings as skip connections.\relax }{table.caption.9}{}}
\@writefile{lot}{\contentsline {table}{\numberline {6}{\ignorespaces Comparison to Xception and IGC over $20$-layer networks with various widths.\relax }}{7}{table.caption.10}}
\newlabel{tab:comparedIGCXceptionvariouswidth}{{6}{7}{Comparison to Xception and IGC over $20$-layer networks with various widths.\relax }{table.caption.10}{}}
\citation{singh2016swapout}
\citation{WangWZZ16}
\citation{he2016deep}
\citation{huang2016deep}
\citation{huang2017snapshot}
\citation{zhao2016connection}
\citation{targ2016resnet}
\citation{cordeirowide}
\citation{cordeirowide}
\citation{huang2017snapshot}
\citation{huang2017snapshot}
\citation{HuangLW16a}
\newlabel{fig-d2w-param}{{4a}{8}{\relax }{figure.caption.4}{}}
\newlabel{sub@fig-d2w-param}{{a}{8}{\relax }{figure.caption.4}{}}
\newlabel{fig-d2w-flops}{{4b}{8}{\relax }{figure.caption.4}{}}
\newlabel{sub@fig-d2w-flops}{{b}{8}{\relax }{figure.caption.4}{}}
\@writefile{lof}{\contentsline {figure}{\numberline {4}{\ignorespaces Illustrating how the performances of our networks change for wider/deeper networks. The networks use the structure ISSC*-W$c$ in table \ref  {tab:networkstructures}. Each point represent for one model, \emph  {e.g}\onedot  , The point $W=160$ is model with 20 layers and width of fist stage as 160. The results show that over networks with identity mapping, wider networks with ISSC have better performance than deeper network on the same level of \#params and FLOPs.\relax }}{8}{figure.caption.4}}
\newlabel{fig:deeperwider}{{4}{8}{Illustrating how the performances of our networks change for wider/deeper networks. The networks use the structure ISSC*-W$c$ in table \ref {tab:networkstructures}. Each point represent for one model, \eg , The point $W=160$ is model with 20 layers and width of fist stage as 160. The results show that over networks with identity mapping, wider networks with ISSC have better performance than deeper network on the same level of \#params and FLOPs.\relax }{figure.caption.4}{}}
\@writefile{lot}{\contentsline {table}{\numberline {7}{\ignorespaces Comparison between our ISSC approach, IGC on shallow network structure with identity mapping as skip connection.\relax }}{8}{table.caption.11}}
\newlabel{tab:comparisontoIGCvariousdepth}{{7}{8}{Comparison between our ISSC approach, IGC on shallow network structure with identity mapping as skip connection.\relax }{table.caption.11}{}}
\@writefile{lot}{\contentsline {table}{\numberline {8}{\ignorespaces Comparison to IGC and Xception for deeper networks on CIFAR-100.\relax }}{8}{table.caption.12}}
\newlabel{tab:comarisontodeepernetwork}{{8}{8}{Comparison to IGC and Xception for deeper networks on CIFAR-100.\relax }{table.caption.12}{}}
\@writefile{lot}{\contentsline {table}{\numberline {9}{\ignorespaces Illustrating the advantages of our networks for the small model cases through the comparison to existing state-of-the-art architecture design algorithms.\relax }}{8}{table.caption.13}}
\newlabel{tab:smallmodelcomparison}{{9}{8}{Illustrating the advantages of our networks for the small model cases through the comparison to existing state-of-the-art architecture design algorithms.\relax }{table.caption.13}{}}
\@writefile{toc}{\contentsline {subsection}{\numberline {4.5}\hskip -1em.\nobreakspace  {}Performance Comparison for Small-Model Networks}{8}{subsection.4.5}}
\bibstyle{ieee}
\bibdata{ConvApproximation}
\bibcite{Chollet16a}{1}
\bibcite{cordeirowide}{2}
\bibcite{courbariaux2016binarized}{3}
\bibcite{DentonZBLF14}{4}
\bibcite{HanMD15}{5}
\bibcite{HeZRS16}{6}
\bibcite{he2016deep}{7}
\bibcite{he2017channel}{8}
\bibcite{huang2017snapshot}{9}
\bibcite{HuangLW16a}{10}
\bibcite{HuangSLSW16}{11}
\bibcite{huang2016deep}{12}
\bibcite{IoannouRCC16}{13}
\bibcite{IoannouRSCC15}{14}
\bibcite{JaderbergVZ14}{15}
\bibcite{KimPYCYS15}{16}
\bibcite{Alex2009}{17}
\bibcite{LarssonMS16a}{18}
\bibcite{Le2015TinyIV}{19}
\bibcite{LeeXGZT15}{20}
\bibcite{li2016ternary}{21}
\bibcite{LiKDSG16}{22}
\bibcite{LinCY13}{23}
\bibcite{liu2015sparse}{24}
\bibcite{MamaletG12}{25}
\bibcite{mao2017exploring}{26}
\bibcite{park2016faster}{27}
\bibcite{rastegari2016xnor}{28}
\bibcite{RomeroBKCGB14}{29}
\bibcite{ILSVRC15}{30}
\bibcite{singh2016swapout}{31}
\bibcite{SpringenbergDBR14}{32}
\bibcite{SrivastavaGS15}{33}
\bibcite{TorralbaFF08}{34}
\@writefile{toc}{\contentsline {section}{\numberline {5}\hskip -1em.\nobreakspace  {}Conclusions}{9}{section.5}}
\bibcite{WangWZZ16}{35}
\bibcite{WenWWCL16}{36}
\bibcite{wen2017coordinating}{37}
\bibcite{XieGDTH16}{38}
\bibcite{ZhangQXW17}{39}
\bibcite{ZhaoWLTZ16}{40}
\bibcite{zhao2016connection}{41}
\bibcite{zhou2017incremental}{42}
\bibcite{zhou2016dorefa}{43}
\bibcite{zhu2016trained}{44}
