This is BibTeX, Version 0.99d (TeX Live 2017/W32TeX)
Capacity: max_strings=100000, hash_size=100000, hash_prime=85009
The top-level auxiliary file: SparseMatrixProductionV6.aux
The style file: ieee.bst
Database file #1: ConvApproximation.bib
Repeated entry---line 1243 of file ConvApproximation.bib
 : @inproceedings{JaderbergVZ14
 :                             ,
I'm skipping whatever remains of this entry
A bad cross reference---entry "HeZRS16"
refers to entry "DBLP:conf/cvpr/2016", which doesn't exist
A bad cross reference---entry "WenWWCL16"
refers to entry "DBLP:conf/nips/2016", which doesn't exist
A bad cross reference---entry "JaderbergVZ14"
refers to entry "DBLP:conf/bmvc/2014", which doesn't exist
A bad cross reference---entry "MamaletG12"
refers to entry "DBLP:conf/icann/2012-2", which doesn't exist
A bad cross reference---entry "DentonZBLF14"
refers to entry "DBLP:conf/nips/2014", which doesn't exist
A bad cross reference---entry "HuangSLSW16"
refers to entry "DBLP:conf/eccv/2016-4", which doesn't exist
A bad cross reference---entry "LeeXGZT15"
refers to entry "DBLP:conf/aistats/2015", which doesn't exist
A bad cross reference---entry "SrivastavaGS15"
refers to entry "DBLP:conf/nips/2015", which doesn't exist
Warning--I didn't find a database entry for "DBLP:conf/nips/2014"
Warning--I didn't find a database entry for "DBLP:conf/cvpr/2016"
Warning--I didn't find a database entry for "DBLP:conf/bmvc/2014"
Warning--I didn't find a database entry for "DBLP:conf/eccv/2016-4"
Warning--I didn't find a database entry for "DBLP:conf/aistats/2015"
Warning--I didn't find a database entry for "DBLP:conf/nips/2015"
Warning--I didn't find a database entry for "DBLP:conf/icann/2012-2"
Warning--I didn't find a database entry for "DBLP:conf/nips/2016"
Warning--empty journal in cordeirowide
Warning--empty year in cordeirowide
Warning--empty booktitle in Le2015TinyIV
Warning--empty journal in park2016faster
You've used 45 entries,
            2120 wiz_defined-function locations,
            741 strings with 11520 characters,
and the built_in function-call counts, 16742 in all, are:
= -- 1556
> -- 1097
< -- 11
+ -- 431
- -- 386
* -- 1182
:= -- 2874
add.period$ -- 137
call.type$ -- 45
change.case$ -- 328
chr.to.int$ -- 0
cite$ -- 49
duplicate$ -- 608
empty$ -- 1086
format.name$ -- 386
if$ -- 3419
int.to.chr$ -- 0
int.to.str$ -- 45
missing$ -- 45
newline$ -- 227
num.names$ -- 90
pop$ -- 344
preamble$ -- 1
purify$ -- 283
quote$ -- 0
skip$ -- 471
stack$ -- 0
substring$ -- 637
swap$ -- 157
text.length$ -- 11
text.prefix$ -- 0
top$ -- 0
type$ -- 180
warning$ -- 4
while$ -- 126
width$ -- 47
write$ -- 479
(There were 9 error messages)
