\relax 
\providecommand\hyper@newdestlabel[2]{}
\providecommand\HyperFirstAtBeginDocument{\AtBeginDocument}
\HyperFirstAtBeginDocument{\ifx\hyper@anchor\@undefined
\global\let\oldcontentsline\contentsline
\gdef\contentsline#1#2#3#4{\oldcontentsline{#1}{#2}{#3}}
\global\let\oldnewlabel\newlabel
\gdef\newlabel#1#2{\newlabelxx{#1}#2}
\gdef\newlabelxx#1#2#3#4#5#6{\oldnewlabel{#1}{{#2}{#3}}}
\AtEndDocument{\ifx\hyper@anchor\@undefined
\let\contentsline\oldcontentsline
\let\newlabel\oldnewlabel
\fi}
\fi}
\global\let\hyper@last\relax 
\gdef\HyperFirstAtBeginDocument#1{#1}
\providecommand\HyField@AuxAddToFields[1]{}
\providecommand\HyField@AuxAddToCoFields[2]{}
\citation{HeZRS16}
\citation{ZhangQXW17}
\citation{IoannouRCC16}
\citation{Chollet16a}
\citation{ZhangQXW17}
\citation{IoannouRCC16}
\citation{Chollet16a}
\providecommand \oddpage@label [2]{}
\@writefile{toc}{\contentsline {section}{\numberline {1}\hskip -1em.\nobreakspace  {}Introduction}{1}{section.1}}
\@writefile{lof}{\contentsline {figure}{\numberline {1}{\ignorespaces The structure of ISSC. \relax }}{1}{figure.caption.1}}
\providecommand*\caption@xref[2]{\@setref\relax\@undefined{#1}}
\newlabel{fig:teaser}{{1}{1}{The structure of ISSC. \relax }{figure.caption.1}{}}
\citation{zhou2017incremental}
\citation{HanMD15}
\citation{courbariaux2016binarized}
\citation{rastegari2016xnor}
\citation{li2016ternary}
\citation{zhou2016dorefa}
\citation{zhu2016trained}
\citation{liu2015sparse}
\citation{park2016faster}
\citation{WenWWCL16}
\citation{mao2017exploring}
\citation{XieGDTH16}
\citation{ZhaoWLTZ16}
\citation{he2017channel}
\citation{wen2017coordinating}
\citation{LiKDSG16}
\citation{IoannouRSCC15}
\citation{JaderbergVZ14}
\citation{MamaletG12}
\citation{DentonZBLF14}
\citation{JaderbergVZ14}
\citation{DentonZBLF14}
\citation{KimPYCYS15}
\citation{JaderbergVZ14}
\citation{HeZRS16}
\citation{ZhangQXW17}
\citation{ZhangQXW17}
\citation{Chollet16a}
\citation{IoannouRCC16}
\citation{Chollet16a}
\citation{IoannouRCC16}
\citation{ZhangQXW17}
\citation{ZhangQXW17}
\@writefile{toc}{\contentsline {section}{\numberline {2}\hskip -1em.\nobreakspace  {}Related Work}{2}{section.2}}
\@writefile{toc}{\contentsline {section}{\numberline {3}\hskip -1em.\nobreakspace  {}Our Approach}{2}{section.3}}
\@writefile{toc}{\contentsline {subsection}{\numberline {3.1}\hskip -1em.\nobreakspace  {}A Review of IGC, Xception and Deep Roots}{2}{subsection.3.1}}
\newlabel{eqn:twosparsematrixproduct}{{2}{2}{\hskip -1em.~A Review of IGC, Xception and Deep Roots}{equation.3.2}{}}
\newlabel{eqn:groupconvolution}{{3}{2}{\hskip -1em.~A Review of IGC, Xception and Deep Roots}{equation.3.3}{}}
\citation{ZhangQXW17}
\@writefile{toc}{\contentsline {subsection}{\numberline {3.2}\hskip -1em.\nobreakspace  {}Interleaved Structured Sparse Convolutions}{3}{subsection.3.2}}
\newlabel{sec:ISSC}{{3.2}{3}{\hskip -1em.~Interleaved Structured Sparse Convolutions}{subsection.3.2}{}}
\newlabel{eqn:moresparsematrixproduct}{{5}{3}{\hskip -1em.~Interleaved Structured Sparse Convolutions}{equation.3.5}{}}
\newlabel{eqn:multiplicationproperty}{{6}{3}{\hskip -1em.~Interleaved Structured Sparse Convolutions}{equation.3.6}{}}
\citation{ZhangQXW17}
\citation{ZhangQXW17}
\citation{Alex2009}
\citation{TorralbaFF08}
\citation{HeZRS16}
\citation{HuangSLSW16}
\citation{LeeXGZT15}
\citation{HuangLW16a}
\citation{LarssonMS16a}
\citation{LinCY13}
\citation{RomeroBKCGB14}
\citation{SpringenbergDBR14}
\citation{SrivastavaGS15}
\newlabel{eqn:balancecondition}{{11}{4}{\hskip -1em.~Interleaved Structured Sparse Convolutions}{equation.3.11}{}}
\newlabel{eqn:optimalLforminimalC}{{14}{4}{\hskip -1em.~Interleaved Structured Sparse Convolutions}{equation.3.14}{}}
\@writefile{toc}{\contentsline {subsection}{\numberline {3.3}\hskip -1em.\nobreakspace  {}Discussions}{4}{subsection.3.3}}
\citation{Le2015TinyIV}
\citation{ILSVRC15}
\@writefile{lof}{\contentsline {figure}{\numberline {2}{\ignorespaces \relax \fontsize  {9}{11}\selectfont  \abovedisplayskip 8.5\p@ plus3\p@ minus4\p@ \abovedisplayshortskip \z@ plus2\p@ \belowdisplayshortskip 4\p@ plus2\p@ minus2\p@ \def \leftmargin \leftmargini \parsep 4\p@ plus2\p@ minus\p@ \topsep 8\p@ plus2\p@ minus4\p@ \itemsep 4\p@ plus2\p@ minus\p@ {\leftmargin \leftmargini \topsep 4\p@ plus2\p@ minus2\p@ \parsep 2\p@ plus\p@ minus\p@ \itemsep \parsep }\belowdisplayskip \abovedisplayskip Illustrating how the complementary condition affects the performance on CIFAR-$100$ in our approach. $K$ denotes the number of channels in each branch and $C$ denotes the width of the network, i.e., the total channel number. With $L$ fixed, the composed kernel is denser with a larger $K$. The red bar corresponds to the case in which the complementary condition is the most satisfied. The best performances corresponding to the red bar or the bars immediately near to the red bar show that the complementary condition is reasonable for ISSC design.\relax }}{5}{figure.caption.2}}
\newlabel{fig:effectofk}{{2}{5}{\small Illustrating how the complementary condition affects the performance on CIFAR-$100$ in our approach. $K$ denotes the number of channels in each branch and $C$ denotes the width of the network, i.e., the total channel number. With $L$ fixed, the composed kernel is denser with a larger $K$. The red bar corresponds to the case in which the complementary condition is the most satisfied. The best performances corresponding to the red bar or the bars immediately near to the red bar show that the complementary condition is reasonable for ISSC design.\relax }{figure.caption.2}{}}
\@writefile{toc}{\contentsline {section}{\numberline {4}\hskip -1em.\nobreakspace  {}Experiment}{5}{section.4}}
\@writefile{toc}{\contentsline {subsection}{\numberline {4.1}\hskip -1em.\nobreakspace  {}Datasets}{5}{subsection.4.1}}
\@writefile{toc}{\contentsline {subsection}{\numberline {4.2}\hskip -1em.\nobreakspace  {}Empirical Analysis}{5}{subsection.4.2}}
\@writefile{lof}{\contentsline {figure}{\numberline {3}{\ignorespaces \relax \fontsize  {9}{11}\selectfont  \abovedisplayskip 8.5\p@ plus3\p@ minus4\p@ \abovedisplayshortskip \z@ plus2\p@ \belowdisplayshortskip 4\p@ plus2\p@ minus2\p@ \def \leftmargin \leftmargini \parsep 4\p@ plus2\p@ minus\p@ \topsep 8\p@ plus2\p@ minus4\p@ \itemsep 4\p@ plus2\p@ minus\p@ {\leftmargin \leftmargini \topsep 4\p@ plus2\p@ minus2\p@ \parsep 2\p@ plus\p@ minus\p@ \itemsep \parsep }\belowdisplayskip \abovedisplayskip Illustrating how the number of layers $L$ affects the performance on CIFAR-$100$. The number of channels in each branch of group convolution is chosen to satisfy the balance condition and to keep the \#params the same. {\color  {red} The accuracy depends on both the width and the non-sparsity degree, and the maximum accuracy is achieved at some $L$, in which the width and the non-sparsity degree reach a balance.} \relax }}{5}{figure.caption.3}}
\newlabel{fig:effectofL}{{\caption@xref {fig:effectofL}{ on input line 767}}{5}{\hskip -1em.~Empirical Analysis}{figure.caption.3}{}}
\@writefile{lot}{\contentsline {table}{\numberline {1}{\ignorespaces Illustrating the architectures of networks we used in the experiments. $c$ is the number of channels at the first stage. $B$ is the number of blocks and the skip connection is added every two blocks. $c\times (3\times 3,1)$ means a $3\times 3$ channel-wise convolution with the channel number being $c$. $L$ and $K$ are the hyper-parameters of ISSC. $[L-1,c,(1\times 1, K)]$ denotes the $L-1$ group $1\times 1$ convolutions with each branch containing $K$ channels. \relax }}{6}{table.caption.4}}
\newlabel{tab:networkstructures}{{1}{6}{Illustrating the architectures of networks we used in the experiments. $c$ is the number of channels at the first stage. $B$ is the number of blocks and the skip connection is added every two blocks. $c\times (3\times 3,1)$ means a $3\times 3$ channel-wise convolution with the channel number being $c$. $L$ and $K$ are the hyper-parameters of ISSC. $[L-1,c,(1\times 1, K)]$ denotes the $L-1$ group $1\times 1$ convolutions with each branch containing $K$ channels. \relax }{table.caption.4}{}}
\newlabel{fig-d2w-param}{{\caption@xref {fig-d2w-param}{ on input line 888}}{6}{\hskip -1em.~Empirical Analysis}{figure.caption.5}{}}
\newlabel{sub@fig-d2w-param}{{}{6}{\hskip -1em.~Empirical Analysis}{figure.caption.5}{}}
\newlabel{fig-d2w-flops}{{\caption@xref {fig-d2w-flops}{ on input line 893}}{6}{\hskip -1em.~Empirical Analysis}{figure.caption.5}{}}
\newlabel{sub@fig-d2w-flops}{{}{6}{\hskip -1em.~Empirical Analysis}{figure.caption.5}{}}
\@writefile{lof}{\contentsline {figure}{\numberline {4}{\ignorespaces Illustrating how the performance changes when our network goes deeper or wider. We use the network structure ISSC*-$Cc$ in table \ref  {tab:networkstructures} and conduct the experiments with various depths (denoted as $D$) and widths (denoted as $C$). Both going wider and going deeper increase the performance and the benefit of going wider is greater than going deeper.\relax }}{6}{figure.caption.5}}
\newlabel{fig:deeperwider}{{4}{6}{Illustrating how the performance changes when our network goes deeper or wider. We use the network structure ISSC*-$Cc$ in table \ref {tab:networkstructures} and conduct the experiments with various depths (denoted as $D$) and widths (denoted as $C$). Both going wider and going deeper increase the performance and the benefit of going wider is greater than going deeper.\relax }{figure.caption.5}{}}
\citation{ZhangQXW17}
\@writefile{lot}{\contentsline {table}{\numberline {2}{\ignorespaces Classification accuracy comparison between Xception and ISSC over the $ 8 $-layer network with various widths. The number of parameters and FLOPs are calculated within each block.\relax }}{7}{table.caption.6}}
\newlabel{tab:comparisontoxception8layers}{{2}{7}{Classification accuracy comparison between Xception and ISSC over the $ 8 $-layer network with various widths. The number of parameters and FLOPs are calculated within each block.\relax }{table.caption.6}{}}
\@writefile{lot}{\contentsline {table}{\numberline {3}{\ignorespaces Classification accuracy comparison between Xception, IGC, and our network ISSC under various widths with depth fixed as $20$.\relax }}{7}{table.caption.7}}
\newlabel{tab:comparedIGCXceptionvariouswidth}{{3}{7}{Classification accuracy comparison between Xception, IGC, and our network ISSC under various widths with depth fixed as $20$.\relax }{table.caption.7}{}}
\@writefile{toc}{\contentsline {subsection}{\numberline {4.3}\hskip -1em.\nobreakspace  {}Comparison With Xception}{7}{subsection.4.3}}
\newlabel{sec:comparisonwithxception}{{4.3}{7}{\hskip -1em.~Comparison With Xception}{subsection.4.3}{}}
\@writefile{lot}{\contentsline {table}{\numberline {4}{\ignorespaces Classification accuracy comparison between Xception and our network under various depths.\relax }}{7}{table.caption.8}}
\newlabel{tab:comparisontoXceptionvariousdepth}{{4}{7}{Classification accuracy comparison between Xception and our network under various depths.\relax }{table.caption.8}{}}
\@writefile{toc}{\contentsline {subsection}{\numberline {4.4}\hskip -1em.\nobreakspace  {}Comparison With IGC.}{7}{subsection.4.4}}
\newlabel{sec:comparisonwithIGC}{{4.4}{7}{\hskip -1em.~Comparison With IGC}{subsection.4.4}{}}
\citation{ZhangQXW17}
\citation{singh2016swapout}
\citation{WangWZZ16}
\citation{he2016deep}
\citation{huang2016deep}
\citation{huang2017snapshot}
\citation{zhao2016connection}
\citation{TargAL16}
\citation{cordeirowide}
\citation{cordeirowide}
\citation{huang2017snapshot}
\citation{huang2017snapshot}
\citation{HuangLW16a}
\bibstyle{ieee}
\bibdata{ConvApproximation}
\@writefile{lot}{\contentsline {table}{\numberline {5}{\ignorespaces Classification accuracy comparison between IGC and our networks with two designs, ISSC-$1$ and ISSC-$2$, over the $8$-layer network with various widths. The number of parameters and FLOPs are calculated within each block.\relax }}{8}{table.caption.9}}
\newlabel{tab:comparisontoIGC8layers}{{5}{8}{Classification accuracy comparison between IGC and our networks with two designs, ISSC-$1$ and ISSC-$2$, over the $8$-layer network with various widths. The number of parameters and FLOPs are calculated within each block.\relax }{table.caption.9}{}}
\@writefile{lot}{\contentsline {table}{\numberline {6}{\ignorespaces Classification accuracy comparison between IGC and our network under various depths.\relax }}{8}{table.caption.10}}
\newlabel{tab:comparisontoIGCvariousdepth}{{6}{8}{Classification accuracy comparison between IGC and our network under various depths.\relax }{table.caption.10}{}}
\@writefile{lot}{\contentsline {table}{\numberline {7}{\ignorespaces Illustrating the advantages of our networks for the small model cases through the comparison to existing state-of-the-art architecture design algorithms.\relax }}{8}{table.caption.11}}
\newlabel{tab:smallmodelcomparison}{{7}{8}{Illustrating the advantages of our networks for the small model cases through the comparison to existing state-of-the-art architecture design algorithms.\relax }{table.caption.11}{}}
\@writefile{toc}{\contentsline {subsection}{\numberline {4.5}\hskip -1em.\nobreakspace  {}Performance Comparison for Small-Model Networks}{8}{subsection.4.5}}
\@writefile{toc}{\contentsline {section}{\numberline {5}\hskip -1em.\nobreakspace  {}Conclusion}{8}{section.5}}
\bibcite{Chollet16a}{1}
\bibcite{cordeirowide}{2}
\bibcite{courbariaux2016binarized}{3}
\bibcite{DentonZBLF14}{4}
\bibcite{HanMD15}{5}
\bibcite{HeZRS16}{6}
\bibcite{he2016deep}{7}
\bibcite{he2017channel}{8}
\bibcite{huang2017snapshot}{9}
\bibcite{HuangLW16a}{10}
\bibcite{HuangSLSW16}{11}
\bibcite{huang2016deep}{12}
\bibcite{IoannouRCC16}{13}
\bibcite{IoannouRSCC15}{14}
\bibcite{JaderbergVZ14}{15}
\bibcite{KimPYCYS15}{16}
\bibcite{Alex2009}{17}
\bibcite{LarssonMS16a}{18}
\bibcite{Le2015TinyIV}{19}
\bibcite{LeeXGZT15}{20}
\bibcite{li2016ternary}{21}
\bibcite{LiKDSG16}{22}
\bibcite{LinCY13}{23}
\bibcite{liu2015sparse}{24}
\bibcite{MamaletG12}{25}
\bibcite{mao2017exploring}{26}
\bibcite{park2016faster}{27}
\bibcite{rastegari2016xnor}{28}
\bibcite{RomeroBKCGB14}{29}
\bibcite{ILSVRC15}{30}
\bibcite{singh2016swapout}{31}
\bibcite{SpringenbergDBR14}{32}
\bibcite{SrivastavaGS15}{33}
\bibcite{TargAL16}{34}
\bibcite{TorralbaFF08}{35}
\bibcite{WangWZZ16}{36}
\bibcite{WenWWCL16}{37}
\bibcite{wen2017coordinating}{38}
\bibcite{XieGDTH16}{39}
\bibcite{ZhangQXW17}{40}
\bibcite{ZhaoWLTZ16}{41}
\bibcite{zhao2016connection}{42}
\bibcite{zhou2017incremental}{43}
\bibcite{zhou2016dorefa}{44}
\bibcite{zhu2016trained}{45}
