\relax 
\providecommand\hyper@newdestlabel[2]{}
\providecommand\HyperFirstAtBeginDocument{\AtBeginDocument}
\HyperFirstAtBeginDocument{\ifx\hyper@anchor\@undefined
\global\let\oldcontentsline\contentsline
\gdef\contentsline#1#2#3#4{\oldcontentsline{#1}{#2}{#3}}
\global\let\oldnewlabel\newlabel
\gdef\newlabel#1#2{\newlabelxx{#1}#2}
\gdef\newlabelxx#1#2#3#4#5#6{\oldnewlabel{#1}{{#2}{#3}}}
\AtEndDocument{\ifx\hyper@anchor\@undefined
\let\contentsline\oldcontentsline
\let\newlabel\oldnewlabel
\fi}
\fi}
\global\let\hyper@last\relax 
\gdef\HyperFirstAtBeginDocument#1{#1}
\providecommand\HyField@AuxAddToFields[1]{}
\providecommand\HyField@AuxAddToCoFields[2]{}
\citation{HeZRS16}
\citation{ZhangQXW17}
\citation{IoannouRCC16}
\citation{Chollet16a}
\citation{ZhangQXW17}
\citation{IoannouRCC16}
\citation{Chollet16a}
\@writefile{toc}{\contentsline {section}{\numberline {1}\hskip -1em.\nobreakspace  {}Introduction}{1}{section.1}}
\@writefile{lof}{\contentsline {figure}{\numberline {1}{\ignorespaces {\color  {blue}Various efficient and effective convolutional kernels. (1)Using a few bits to store values of regular kernel. (2)Representing regular kernel in sparse ways. (3)Prunes least significant filters from regular kernel. (4)Products of low rank matrix to approximate regular kernel. (5)Products of sparse kernel to approximate regular kernel and our approaches belong to this category.}}}{1}{figure.1}}
\newlabel{fig:relatedwork}{{1}{1}{\color {blue}Various efficient and effective convolutional kernels. (1)Using a few bits to store values of regular kernel. (2)Representing regular kernel in sparse ways. (3)Prunes least significant filters from regular kernel. (4)Products of low rank matrix to approximate regular kernel. (5)Products of sparse kernel to approximate regular kernel and our approaches belong to this category}{figure.1}{}}
\@writefile{brf}{\backcite{HeZRS16}{{1}{1}{figure.1}}}
\@writefile{brf}{\backcite{ZhangQXW17, IoannouRCC16, Chollet16a}{{1}{1}{figure.1}}}
\@writefile{brf}{\backcite{ZhangQXW17}{{1}{1}{figure.1}}}
\@writefile{brf}{\backcite{IoannouRCC16}{{1}{1}{figure.1}}}
\@writefile{brf}{\backcite{Chollet16a}{{1}{1}{figure.1}}}
\citation{zhou2017incremental}
\citation{HanMD15}
\citation{courbariaux2016binarized}
\citation{rastegari2016xnor}
\citation{li2016ternary}
\citation{zhou2016dorefa}
\citation{zhu2016trained}
\citation{liu2015sparse}
\citation{park2016faster}
\citation{WenWWCL16}
\citation{mao2017exploring}
\citation{XieGDTH16}
\citation{ZhaoWLTZ16}
\citation{he2017channel}
\citation{wen2017coordinating}
\citation{LiKDSG16}
\citation{IoannouRSCC15}
\citation{JaderbergVZ14}
\citation{MamaletG12}
\citation{DentonZBLF14}
\citation{JaderbergVZ14}
\citation{DentonZBLF14}
\citation{KimPYCYS15}
\citation{JaderbergVZ14}
\citation{HeZRS16}
\citation{ZhangQXW17}
\citation{ZhangQXW17}
\citation{Chollet16a}
\citation{IoannouRCC16}
\@writefile{lof}{\contentsline {figure}{\numberline {2}{\ignorespaces Illustrating the interleave Structured Sparse Convolution (ISSC), with $L=3$, $K_1=K_2=K_3=2$ and width $C=8$. Solid line with arrow representing the sparse weights $\mathbf  {W}_i$, dash line with arrow representing the permutation matrix $\mathbf  {P}_i$. When Complementary Condition is satisfied, the constructed weights $\mathbf  {W}$ is dense, \emph  {i.e}\onedot  , the output channel has one and only one path connected to all the input channels. The path connected through gray feature maps with bold line shows such a path.}}{2}{figure.2}}
\newlabel{fig:ISSC}{{2}{2}{Illustrating the interleave Structured Sparse Convolution (ISSC), with $L=3$, $K_1=K_2=K_3=2$ and width $C=8$. Solid line with arrow representing the sparse weights $\mathbf {W}_i$, dash line with arrow representing the permutation matrix $\mathbf {P}_i$. When Complementary Condition is satisfied, the constructed weights $\mathbf {W}$ is dense, \ie , the output channel has one and only one path connected to all the input channels. The path connected through gray feature maps with bold line shows such a path}{figure.2}{}}
\@writefile{toc}{\contentsline {section}{\numberline {2}\hskip -1em.\nobreakspace  {}Related Work}{2}{section.2}}
\@writefile{brf}{\backcite{zhou2017incremental,HanMD15}{{2}{2}{section.2}}}
\@writefile{brf}{\backcite{courbariaux2016binarized,rastegari2016xnor}{{2}{2}{section.2}}}
\@writefile{brf}{\backcite{li2016ternary,zhou2016dorefa,zhu2016trained}{{2}{2}{section.2}}}
\@writefile{brf}{\backcite{liu2015sparse,park2016faster}{{2}{2}{section.2}}}
\@writefile{brf}{\backcite{WenWWCL16,mao2017exploring}{{2}{2}{section.2}}}
\@writefile{brf}{\backcite{XieGDTH16, ZhaoWLTZ16}{{2}{2}{section.2}}}
\@writefile{brf}{\backcite{he2017channel}{{2}{2}{section.2}}}
\@writefile{brf}{\backcite{wen2017coordinating,LiKDSG16}{{2}{2}{section.2}}}
\@writefile{brf}{\backcite{IoannouRSCC15, JaderbergVZ14, MamaletG12}{{2}{2}{section.2}}}
\@writefile{brf}{\backcite{DentonZBLF14, JaderbergVZ14}{{2}{2}{section.2}}}
\@writefile{brf}{\backcite{DentonZBLF14, KimPYCYS15, JaderbergVZ14}{{2}{2}{section.2}}}
\@writefile{brf}{\backcite{HeZRS16}{{2}{2}{section.2}}}
\@writefile{brf}{\backcite{ZhangQXW17}{{2}{2}{section.2}}}
\@writefile{brf}{\backcite{ZhangQXW17}{{2}{2}{section.2}}}
\@writefile{brf}{\backcite{Chollet16a}{{2}{2}{section.2}}}
\@writefile{brf}{\backcite{IoannouRCC16}{{2}{2}{section.2}}}
\citation{Chollet16a}
\citation{IoannouRCC16}
\citation{ZhangQXW17}
\citation{ZhangQXW17}
\citation{ZhangQXW17}
\@writefile{toc}{\contentsline {section}{\numberline {3}\hskip -1em.\nobreakspace  {}Our Approach}{3}{section.3}}
\@writefile{toc}{\contentsline {subsection}{\numberline {3.1}\hskip -1em.\nobreakspace  {}A Review of IGC, Xception and Deep Roots}{3}{subsection.3.1}}
\@writefile{brf}{\backcite{Chollet16a}{{3}{3.1}{subsection.3.1}}}
\@writefile{brf}{\backcite{IoannouRCC16}{{3}{3.1}{subsection.3.1}}}
\@writefile{brf}{\backcite{ZhangQXW17}{{3}{3.1}{subsection.3.1}}}
\newlabel{eqn:twosparsematrixproduct}{{2}{3}{\hskip -1em.~A Review of IGC, Xception and Deep Roots}{equation.3.2}{}}
\newlabel{eqn:groupconvolution}{{3}{3}{\hskip -1em.~A Review of IGC, Xception and Deep Roots}{equation.3.3}{}}
\@writefile{brf}{\backcite{ZhangQXW17}{{3}{3.1}{equation.3.3}}}
\@writefile{toc}{\contentsline {subsection}{\numberline {3.2}\hskip -1em.\nobreakspace  {}Interleaved Structured Sparse Convolutions}{3}{subsection.3.2}}
\newlabel{sec:ISSC}{{3.2}{3}{\hskip -1em.~Interleaved Structured Sparse Convolutions}{subsection.3.2}{}}
\newlabel{eqn:moresparsematrixproduct}{{5}{3}{\hskip -1em.~Interleaved Structured Sparse Convolutions}{equation.3.5}{}}
\@writefile{brf}{\backcite{ZhangQXW17}{{3}{3.2}{equation.3.5}}}
\citation{ZhangQXW17}
\citation{ZhangQXW17}
\newlabel{eqn:multiplicationproperty}{{6}{4}{\hskip -1em.~Interleaved Structured Sparse Convolutions}{equation.3.6}{}}
\newlabel{eqn:balancecondition}{{11}{4}{\hskip -1em.~Interleaved Structured Sparse Convolutions}{equation.3.11}{}}
\newlabel{eqn:optimalLforminimalC}{{14}{4}{\hskip -1em.~Interleaved Structured Sparse Convolutions}{equation.3.14}{}}
\@writefile{brf}{\backcite{ZhangQXW17}{{4}{3.2}{equation.3.14}}}
\@writefile{brf}{\backcite{ZhangQXW17}{{4}{3}{Hfootnote.3}}}
\citation{LeeKLS13}
\citation{LeeKLSB16}
\citation{Alex2009}
\citation{TorralbaFF08}
\citation{HeZRS16}
\citation{HuangSLSW16}
\citation{LeeXGZT15}
\citation{HuangLW16a}
\citation{LarssonMS16a}
\citation{LinCY13}
\citation{RomeroBKCGB14}
\citation{SpringenbergDBR14}
\citation{SrivastavaGS15}
\citation{Le2015TinyIV}
\citation{ILSVRC15}
\citation{ZhangQXW17}
\citation{jia2014caffe}
\citation{huang2017snapshot}
\@writefile{toc}{\contentsline {subsection}{\numberline {3.3}\hskip -1em.\nobreakspace  {}Discussions}{5}{subsection.3.3}}
\@writefile{brf}{\backcite{LeeKLS13, LeeKLSB16}{{5}{3.3}{subsection.3.3}}}
\@writefile{toc}{\contentsline {section}{\numberline {4}\hskip -1em.\nobreakspace  {}Experiment}{5}{section.4}}
\@writefile{toc}{\contentsline {subsection}{\numberline {4.1}\hskip -1em.\nobreakspace  {}Datasets}{5}{subsection.4.1}}
\@writefile{brf}{\backcite{Alex2009}{{5}{4.1}{subsection.4.1}}}
\@writefile{brf}{\backcite{TorralbaFF08}{{5}{4.1}{subsection.4.1}}}
\@writefile{brf}{\backcite{HeZRS16, HuangSLSW16, LeeXGZT15, HuangLW16a, LarssonMS16a, LinCY13, RomeroBKCGB14, SpringenbergDBR14, SrivastavaGS15}{{5}{4.1}{subsection.4.1}}}
\@writefile{brf}{\backcite{Le2015TinyIV}{{5}{4.1}{figure.5}}}
\@writefile{brf}{\backcite{ILSVRC15}{{5}{4.1}{figure.5}}}
\@writefile{toc}{\contentsline {subsection}{\numberline {4.2}\hskip -1em.\nobreakspace  {}Training Settings}{5}{subsection.4.2}}
\@writefile{brf}{\backcite{ZhangQXW17}{{5}{4.2}{subsection.4.2}}}
\@writefile{brf}{\backcite{jia2014caffe}{{5}{4.2}{subsection.4.2}}}
\@writefile{brf}{\backcite{huang2017snapshot}{{5}{4.2}{subsection.4.2}}}
\@writefile{toc}{\contentsline {subsection}{\numberline {4.3}\hskip -1em.\nobreakspace  {}Empirical Analysis}{5}{subsection.4.3}}
\@writefile{lof}{\contentsline {figure}{\numberline {3}{\ignorespaces  Illustrating how the complementary condition affects the performance on CIFAR-$100$ in our approach. $K$ denotes the number of channels in each branch and $C$ denotes the width of the network, \emph  {i.e}\onedot  , the total channel number. With $L$ fixed, the composed kernel is denser with a larger $K$. The red bar corresponds to the case in which the complementary condition is the most satisfied. The best performances corresponding to the red bar or the bars immediately near to the red bar show that the complementary condition is reasonable for ISSC design.}}{6}{figure.3}}
\newlabel{fig:effectofk}{{3}{6}{Illustrating how the complementary condition affects the performance on CIFAR-$100$ in our approach. $K$ denotes the number of channels in each branch and $C$ denotes the width of the network, \ie , the total channel number. With $L$ fixed, the composed kernel is denser with a larger $K$. The red bar corresponds to the case in which the complementary condition is the most satisfied. The best performances corresponding to the red bar or the bars immediately near to the red bar show that the complementary condition is reasonable for ISSC design}{figure.3}{}}
\@writefile{lot}{\contentsline {table}{\numberline {1}{\ignorespaces Illustrating the architectures of networks we used in the experiments. $c$ is the number of channels at the first stage. $B$ is the number of blocks and the skip connection is added every two blocks. $c\times (3\times 3,1)$ means a $3\times 3$ channel-wise convolution with the channel number being $c$. $L$ and $K$ are the hyper-parameters of ISSC. $[L-1,c,(1\times 1, K)]$ denotes the $L-1$ group $1\times 1$ convolutions with each branch containing $K$ channels. }}{6}{table.1}}
\newlabel{tab:networkstructures}{{1}{6}{Illustrating the architectures of networks we used in the experiments. $c$ is the number of channels at the first stage. $B$ is the number of blocks and the skip connection is added every two blocks. $c\times (3\times 3,1)$ means a $3\times 3$ channel-wise convolution with the channel number being $c$. $L$ and $K$ are the hyper-parameters of ISSC. $[L-1,c,(1\times 1, K)]$ denotes the $L-1$ group $1\times 1$ convolutions with each branch containing $K$ channels}{table.1}{}}
\@writefile{lof}{\contentsline {figure}{\numberline {4}{\ignorespaces Illustrating how the number of layers $L$ affects the performance on CIFAR-$100$. The number of channels in each branch of group convolution is chosen to both satisfy the balance condition {\color  {blue}and the (nearly) complementary condition, } and to keep the \#params the same. {\color  {red} The accuracy depends on both the width and the non-sparsity degree, and the maximum accuracy is achieved at some $L$, in which the width and the non-sparsity degree reach a balance.} }}{7}{figure.4}}
\newlabel{fig:theeffectofL}{{4}{7}{Illustrating how the number of layers $L$ affects the performance on CIFAR-$100$. The number of channels in each branch of group convolution is chosen to both satisfy the balance condition {\color {blue}and the (nearly) complementary condition, } and to keep the \#params the same. {\color {red} The accuracy depends on both the width and the non-sparsity degree, and the maximum accuracy is achieved at some $L$, in which the width and the non-sparsity degree reach a balance.}}{figure.4}{}}
\newlabel{fig:deeperwider:a}{{5(a)}{7}{Subfigure 5(a)}{subfigure.5.1}{}}
\newlabel{sub@fig:deeperwider:a}{{(a)}{7}{Subfigure 5(a)\relax }{subfigure.5.1}{}}
\newlabel{fig:deeperwider:b}{{5(b)}{7}{Subfigure 5(b)}{subfigure.5.2}{}}
\newlabel{sub@fig:deeperwider:b}{{(b)}{7}{Subfigure 5(b)\relax }{subfigure.5.2}{}}
\@writefile{lof}{\contentsline {figure}{\numberline {5}{\ignorespaces Illustrating how the performance changes when our network goes deeper or wider. We use the network structure ISSC*-$Cc$ in table \ref  {tab:networkstructures} and conduct the experiments with various depths (denoted as $D$) and widths (denoted as $C$). Both going wider and going deeper increase the performance and the benefit of going wider is greater than going deeper.}}{7}{figure.5}}
\newlabel{fig:deeperwider}{{5}{7}{Illustrating how the performance changes when our network goes deeper or wider. We use the network structure ISSC*-$Cc$ in table \ref {tab:networkstructures} and conduct the experiments with various depths (denoted as $D$) and widths (denoted as $C$). Both going wider and going deeper increase the performance and the benefit of going wider is greater than going deeper}{figure.5}{}}
\@writefile{lof}{\contentsline {subfigure}{\numberline{(a)}{\ignorespaces {}}}{7}{figure.5}}
\@writefile{lof}{\contentsline {subfigure}{\numberline{(b)}{\ignorespaces {}}}{7}{figure.5}}
\@writefile{lot}{\contentsline {table}{\numberline {2}{\ignorespaces Classification accuracy comparison between Xception and ISSC over the $ 8 $-layer network with various widths. The number of parameters and FLOPs are calculated within each block.}}{7}{table.2}}
\newlabel{tab:comparisontoxception8layers}{{2}{7}{Classification accuracy comparison between Xception and ISSC over the $ 8 $-layer network with various widths. The number of parameters and FLOPs are calculated within each block}{table.2}{}}
\@writefile{lot}{\contentsline {table}{\numberline {3}{\ignorespaces Classification accuracy comparison between Xception, IGC, and our network ISSC under various widths with depth fixed as $20$.}}{7}{table.3}}
\newlabel{tab:comparedIGCXceptionvariouswidth}{{3}{7}{Classification accuracy comparison between Xception, IGC, and our network ISSC under various widths with depth fixed as $20$}{table.3}{}}
\@writefile{toc}{\contentsline {subsection}{\numberline {4.4}\hskip -1em.\nobreakspace  {}Comparison With Xception}{7}{subsection.4.4}}
\newlabel{sec:comparisonwithxception}{{4.4}{7}{\hskip -1em.~Comparison With Xception}{subsection.4.4}{}}
\citation{ZhangQXW17}
\citation{ZhangQXW17}
\citation{singh2016swapout}
\citation{WangWZZ16}
\citation{huang2016deep}
\citation{he2016identity}
\citation{huang2017snapshot}
\citation{zhao2016connection}
\citation{TargAL16}
\citation{cordeirowide}
\citation{cordeirowide}
\citation{huang2017snapshot}
\citation{ZagoruykoK16}
\citation{huang2017snapshot}
\citation{HuangLW16a}
\citation{HuangLW16a}
\@writefile{lot}{\contentsline {table}{\numberline {4}{\ignorespaces Classification accuracy comparison between Xception and our network under various depths.}}{8}{table.4}}
\newlabel{tab:comparisontoXceptionvariousdepth}{{4}{8}{Classification accuracy comparison between Xception and our network under various depths}{table.4}{}}
\@writefile{lot}{\contentsline {table}{\numberline {5}{\ignorespaces Classification accuracy comparison between IGC and our networks with two designs, ISSC-$1$ and ISSC-$2$, over the $8$-layer network with various widths. The number of parameters and FLOPs are calculated within each block.}}{8}{table.5}}
\newlabel{tab:comparisontoIGC8layers}{{5}{8}{Classification accuracy comparison between IGC and our networks with two designs, ISSC-$1$ and ISSC-$2$, over the $8$-layer network with various widths. The number of parameters and FLOPs are calculated within each block}{table.5}{}}
\@writefile{lot}{\contentsline {table}{\numberline {6}{\ignorespaces Classification accuracy comparison between IGC and our network under various depths.}}{8}{table.6}}
\newlabel{tab:comparisontoIGCvariousdepth}{{6}{8}{Classification accuracy comparison between IGC and our network under various depths}{table.6}{}}
\@writefile{toc}{\contentsline {subsection}{\numberline {4.5}\hskip -1em.\nobreakspace  {}Comparison With IGC.}{8}{subsection.4.5}}
\newlabel{sec:comparisonwithIGC}{{4.5}{8}{\hskip -1em.~Comparison With IGC}{subsection.4.5}{}}
\@writefile{brf}{\backcite{ZhangQXW17}{{8}{4.5}{subsection.4.5}}}
\@writefile{brf}{\backcite{ZhangQXW17}{{8}{4.5}{subsection.4.5}}}
\bibstyle{ieee}
\bibdata{ConvApproximation}
\bibcite{Chollet16a}{1}
\bibcite{cordeirowide}{2}
\bibcite{courbariaux2016binarized}{3}
\bibcite{DentonZBLF14}{4}
\bibcite{HanMD15}{5}
\bibcite{HeZRS16}{6}
\bibcite{he2016identity}{7}
\bibcite{he2017channel}{8}
\bibcite{huang2017snapshot}{9}
\bibcite{HuangLW16a}{10}
\bibcite{HuangSLSW16}{11}
\bibcite{huang2016deep}{12}
\bibcite{IoannouRCC16}{13}
\bibcite{IoannouRSCC15}{14}
\bibcite{JaderbergVZ14}{15}
\bibcite{jia2014caffe}{16}
\bibcite{KimPYCYS15}{17}
\bibcite{Alex2009}{18}
\bibcite{LarssonMS16a}{19}
\bibcite{Le2015TinyIV}{20}
\bibcite{LeeXGZT15}{21}
\bibcite{LeeKLS13}{22}
\bibcite{LeeKLSB16}{23}
\@writefile{brf}{\backcite{singh2016swapout}{{9}{4.5}{subsection.4.5}}}
\@writefile{brf}{\backcite{WangWZZ16}{{9}{4.5}{subsection.4.5}}}
\@writefile{brf}{\backcite{huang2016deep}{{9}{4.5}{subsection.4.5}}}
\@writefile{brf}{\backcite{he2016identity}{{9}{4.5}{subsection.4.5}}}
\@writefile{brf}{\backcite{huang2017snapshot}{{9}{4.5}{subsection.4.5}}}
\@writefile{brf}{\backcite{zhao2016connection}{{9}{4.5}{subsection.4.5}}}
\@writefile{brf}{\backcite{TargAL16}{{9}{4.5}{subsection.4.5}}}
\@writefile{brf}{\backcite{cordeirowide}{{9}{4.5}{subsection.4.5}}}
\@writefile{brf}{\backcite{cordeirowide}{{9}{4.5}{subsection.4.5}}}
\@writefile{brf}{\backcite{huang2017snapshot}{{9}{4.5}{subsection.4.5}}}
\@writefile{brf}{\backcite{ZagoruykoK16}{{9}{4.5}{subsection.4.5}}}
\@writefile{brf}{\backcite{huang2017snapshot}{{9}{4.5}{subsection.4.5}}}
\@writefile{brf}{\backcite{HuangLW16a}{{9}{4.5}{subsection.4.5}}}
\@writefile{brf}{\backcite{HuangLW16a}{{9}{4.5}{subsection.4.5}}}
\@writefile{lot}{\contentsline {table}{\numberline {7}{\ignorespaces Illustrating the advantages of our networks for the small model cases through the comparison to existing state-of-the-art architecture design algorithms.}}{9}{table.7}}
\newlabel{tab:smallmodelcomparison}{{7}{9}{Illustrating the advantages of our networks for the small model cases through the comparison to existing state-of-the-art architecture design algorithms}{table.7}{}}
\@writefile{toc}{\contentsline {subsection}{\numberline {4.6}\hskip -1em.\nobreakspace  {}Performance Comparison for Small-Model Networks}{9}{subsection.4.6}}
\@writefile{toc}{\contentsline {section}{\numberline {5}\hskip -1em.\nobreakspace  {}Conclusion}{9}{section.5}}
\bibcite{li2016ternary}{24}
\bibcite{LiKDSG16}{25}
\bibcite{LinCY13}{26}
\bibcite{liu2015sparse}{27}
\bibcite{MamaletG12}{28}
\bibcite{mao2017exploring}{29}
\bibcite{park2016faster}{30}
\bibcite{rastegari2016xnor}{31}
\bibcite{RomeroBKCGB14}{32}
\bibcite{ILSVRC15}{33}
\bibcite{singh2016swapout}{34}
\bibcite{SpringenbergDBR14}{35}
\bibcite{SrivastavaGS15}{36}
\bibcite{TargAL16}{37}
\bibcite{TorralbaFF08}{38}
\bibcite{WangWZZ16}{39}
\bibcite{WenWWCL16}{40}
\bibcite{wen2017coordinating}{41}
\bibcite{XieGDTH16}{42}
\bibcite{ZagoruykoK16}{43}
\bibcite{ZhangQXW17}{44}
\bibcite{ZhaoWLTZ16}{45}
\bibcite{zhao2016connection}{46}
\bibcite{zhou2017incremental}{47}
\bibcite{zhou2016dorefa}{48}
\bibcite{zhu2016trained}{49}
